<?xml version="1.0" standalone="no"?>
<!DOCTYPE svg PUBLIC "-//W3C//DTD SVG 1.1//EN" "http://www.w3.org/Graphics/SVG/1.1/DTD/svg11.dtd" >
<svg xmlns="http://www.w3.org/2000/svg" xmlns:xlink="http://www.w3.org/1999/xlink" version="1.1">
<metadata>
Created by FontForge 20161003 at Thu Oct  4 06:32:26 2018
 By www-data
Copyright (c) 1989, 1995, 2002 Adobe Systems Incorporated.  All Rights Reserved. (c) 1981, 1995, 2002 Heidelberger Druckmaschinen AG. All rights reserved.
</metadata>
<defs>
<font id="AvenirLTStd-MediumOblique" horiz-adv-x="556" >
  <font-face 
    font-family="Avenir LT Std 65 Medium"
    font-weight="600"
    font-style="oblique"
    font-stretch="normal"
    units-per-em="1000"
    panose-1="2 11 6 3 2 2 3 2 2 4"
    ascent="756"
    descent="-244"
    x-height="474"
    cap-height="708"
    bbox="-166 -282 1061 924"
    underline-thickness="50"
    underline-position="-200"
    slope="-8"
    unicode-range="U+0020-FB02"
  />
<missing-glyph horiz-adv-x="598" 
d="M98 0v700h500v-700h-500zM348 395l170 255h-340zM378 350l170 -255v510zM178 50h340l-170 255zM148 605v-510l170 255z" />
    <glyph glyph-name="fi" unicode="fi" 
d="M390 0l67 474h90l-67 -474h-90zM460 643q4 27 26.5 46.5t49.5 19.5t43.5 -19.5t12.5 -46.5t-26 -46.5t-49 -19.5t-44 19.5t-13 46.5zM103 0l56 396h-102l11 78h102l15 106q13 97 57 142.5t131 45.5q38 0 66 -7l-21 -80q-21 9 -50 9q-46 0 -65.5 -26t-26.5 -81l-15 -109
h107l-11 -78h-108l-56 -396h-90z" />
    <glyph glyph-name="fl" unicode="fl" 
d="M391 0l106 756h90l-106 -756h-90zM103 0l56 396h-102l11 78h102l15 106q13 97 57 142.5t131 45.5q38 0 66 -7l-21 -80q-21 9 -50 9q-46 0 -65.5 -26t-26.5 -81l-15 -109h107l-11 -78h-108l-56 -396h-90z" />
    <glyph glyph-name=".notdef" horiz-adv-x="598" 
d="M98 0v700h500v-700h-500zM348 395l170 255h-340zM378 350l170 -255v510zM178 50h340l-170 255zM148 605v-510l170 255z" />
    <glyph glyph-name=".null" horiz-adv-x="0" 
 />
    <glyph glyph-name="nonmarkingreturn" horiz-adv-x="333" 
 />
    <glyph glyph-name="space" unicode=" " horiz-adv-x="278" 
 />
    <glyph glyph-name="exclam" unicode="!" horiz-adv-x="278" 
d="M285 708l-71 -504h-96l71 504h96zM81 60q4 27 26.5 46.5t49.5 19.5t43.5 -19.5t12.5 -46.5t-26 -46.5t-49 -19.5t-44 19.5t-13 46.5z" />
    <glyph glyph-name="quotedbl" unicode="&#x22;" horiz-adv-x="519" 
d="M211 462l35 246h78l-35 -246h-78zM360 462l35 246h78l-35 -246h-78z" />
    <glyph glyph-name="numbersign" unicode="#" 
d="M92 0l57 204h-95l11 78h106l40 144h-95l11 78h106l57 204h79l-57 -204h116l57 204h79l-57 -204h95l-11 -78h-106l-40 -144h95l-11 -78h-106l-57 -204h-79l57 204h-116l-57 -204h-79zM406 426h-116l-40 -144h116z" />
    <glyph glyph-name="dollar" unicode="$" 
d="M411 792l-10 -72q125 0 187 -77l-81 -70q-39 61 -118 63l-33 -236l-2 -1q50 -14 80.5 -27t61.5 -36t42.5 -58t4.5 -84q-12 -88 -82.5 -144.5t-162.5 -61.5l-10 -72h-54l10 72q-146 0 -206 96l87 69q16 -37 52 -58t79 -23l35 246q-91 24 -139 71t-36 134q12 82 79 136
t152 61l10 72h54zM304 414l31 222q-50 -8 -83.5 -37.5t-39.5 -75.5q-11 -78 92 -109zM343 304l-33 -232q53 6 91.5 37.5t45.5 80.5q6 47 -22.5 71.5t-81.5 42.5z" />
    <glyph glyph-name="percent" unicode="%" horiz-adv-x="852" 
d="M114 549q11 74 70 125.5t132 51.5q74 0 118 -52t34 -125q-11 -74 -70 -125.5t-132 -51.5q-74 0 -118 52t-34 125zM192 549q-6 -41 19 -70t66 -29t74 29t39 70t-19 70t-66 29t-74 -29t-39 -70zM483 159q11 74 70 125.5t132 51.5q74 0 118 -52t34 -125t-69 -125t-133 -52
q-73 0 -117.5 51.5t-34.5 125.5zM561 159q-5 -41 19.5 -70t65.5 -29t74.5 29t38.5 70q6 41 -19 70t-66 29t-74 -29t-39 -70zM780 709l-549 -740l-56 31l549 740z" />
    <glyph glyph-name="ampersand" unicode="&#x26;" horiz-adv-x="722" 
d="M574 165l138 -165h-129l-74 94q-55 -57 -110 -84.5t-123 -27.5q-113 0 -164 60t-39 145q18 126 190 203q-35 44 -51 80.5t-9 83.5q11 78 71.5 122t140.5 44q79 0 125.5 -41.5t35.5 -118.5q-15 -105 -173 -182l120 -146l109 145h109zM480 560q4 35 -17 55.5t-59 20.5
q-40 0 -70 -22.5t-35 -60.5q-7 -49 53 -118q36 19 56.5 31t44 38t27.5 56zM461 156l-146 178q-30 -16 -48 -27t-40 -29t-34.5 -40t-16.5 -48q-7 -51 28 -87.5t87 -36.5q82 0 170 90z" />
    <glyph glyph-name="quotesingle" unicode="'" horiz-adv-x="278" 
d="M278 708l-35 -246h-78l35 246h78z" />
    <glyph glyph-name="parenleft" unicode="(" horiz-adv-x="278" 
d="M297 732l55 -38q-83 -106 -126 -198t-60 -208q-31 -229 72 -404l-66 -40q-118 200 -84 444q17 116 70.5 231.5t138.5 212.5z" />
    <glyph glyph-name="parenright" unicode=")" horiz-adv-x="278" 
d="M62 -156l-55 38q83 106 126 198t59 208q33 228 -71 404l66 40q119 -200 83 -444q-16 -115 -70 -230.5t-138 -213.5z" />
    <glyph glyph-name="asterisk" unicode="*" horiz-adv-x="464" 
d="M369 708l-21 -147l145 47l12 -67l-145 -45l71 -119l-61 -41l-74 122l-105 -120l-50 41l106 117l-136 48l31 65l134 -48l21 147h72z" />
    <glyph glyph-name="plus" unicode="+" horiz-adv-x="666" 
d="M103 264l11 78h228l32 228h78l-32 -228h228l-11 -78h-228l-32 -228h-78l32 228h-228z" />
    <glyph glyph-name="comma" unicode="," horiz-adv-x="278" 
d="M230 114l-119 -246h-82l104 246h97z" />
    <glyph glyph-name="hyphen" unicode="-" horiz-adv-x="316" 
d="M321 284l-12 -84h-246l12 84h246z" />
    <glyph glyph-name="period" unicode="." horiz-adv-x="278" 
d="M138 -6q-27 0 -44 19.5t-13 46.5t26.5 46.5t49.5 19.5t43.5 -19.5t12.5 -46.5t-26 -46.5t-49 -19.5z" />
    <glyph glyph-name="slash" unicode="/" horiz-adv-x="389" 
d="M491 726l-427 -770l-67 26l429 770z" />
    <glyph glyph-name="zero" unicode="0" 
d="M84 354q9 66 28 124t52 116t88.5 92t126.5 34q58 0 99 -23.5t62.5 -60t31 -87t8.5 -97.5t-8 -98q-7 -49 -19.5 -95.5t-36 -97t-55 -88t-79.5 -61.5t-106 -24t-99 24t-62 61.5t-30 88t-8.5 97t7.5 95.5zM180 354q-5 -34 -7 -65.5t1 -73t14 -71.5t36.5 -51t63.5 -21
t69.5 21t51 51t34.5 71.5t21.5 73t11.5 65.5q7 46 7.5 87t-6.5 89.5t-35 77t-75 28.5q-147 0 -187 -282z" />
    <glyph glyph-name="one" unicode="1" 
d="M270 0l84 598l-147 -120l-46 67l220 163h85l-100 -708h-96z" />
    <glyph glyph-name="two" unicode="2" 
d="M46 0l14 102l324 282q89 76 98 145q7 51 -23.5 82t-82.5 31q-51 0 -89.5 -29t-54.5 -80l-103 9q27 91 96 137.5t164 46.5q96 0 152.5 -51t42.5 -145q-9 -63 -48.5 -114t-105.5 -107l-264 -225h356l-12 -84h-464z" />
    <glyph glyph-name="three" unicode="3" 
d="M66 142l105 31q11 -53 36.5 -77t79.5 -24q57 0 102 36t53 92q6 42 -7.5 70t-43.5 40.5t-59.5 17t-69.5 4.5l11 84q104 0 146.5 27t50.5 84q8 55 -21 85t-82 30q-38 0 -73 -22.5t-56 -59.5l-94 33q36 65 98 99t135 34q93 0 148 -49.5t42 -143.5q-7 -55 -47.5 -99.5
t-96.5 -60.5v-2q63 -11 93 -60.5t21 -117.5q-14 -97 -89.5 -151t-175.5 -54q-84 0 -139 38t-67 116z" />
    <glyph glyph-name="four" unicode="4" 
d="M336 0l22 156h-302l14 98l346 454h116l-66 -468h100l-12 -84h-100l-22 -156h-96zM370 240l49 354h-2l-265 -354h218z" />
    <glyph glyph-name="five" unicode="5" 
d="M571 708l-13 -90h-287l-28 -177q35 15 97 15q99 0 150.5 -65t36.5 -169t-95.5 -169t-186.5 -65q-74 0 -126 37.5t-67 105.5l102 33q23 -92 118 -92q59 0 104 39.5t54 105.5q11 75 -30 115t-119 40q-72 0 -151 -37l61 373h380z" />
    <glyph glyph-name="six" unicode="6" 
d="M498 708l-217 -274h4q36 16 80 16q86 0 144.5 -58t43.5 -166q-16 -113 -94 -175.5t-183 -62.5q-102 0 -163.5 63.5t-47.5 164.5q9 60 32.5 105.5t68.5 103.5l219 283h113zM162 219q-9 -65 25.5 -106t100.5 -41t112.5 41t55.5 106t-26 106t-101 41t-112 -41t-55 -106z" />
    <glyph glyph-name="seven" unicode="7" 
d="M97 0l375 624h-342l12 84h445l-12 -82l-370 -626h-108z" />
    <glyph glyph-name="eight" unicode="8" 
d="M276 -12q-99 0 -156.5 58.5t-43.5 156.5q9 64 53 110.5t106 62.5v3q-43 12 -70 54.5t-18 110.5q11 78 78.5 127t153.5 49t139.5 -49t42.5 -127q-9 -68 -48 -110.5t-86 -54.5v-3q57 -16 88.5 -62.5t22.5 -110.5q-14 -98 -88 -156.5t-174 -58.5zM241 530q-6 -44 20 -78
t76 -34q53 0 86.5 32.5t39.5 79.5q8 49 -19 80.5t-76 31.5q-46 0 -83 -31.5t-44 -80.5zM288 72q60 0 103 36.5t51 94.5q9 62 -24.5 96t-92.5 35q-59 -1 -102.5 -38t-50.5 -93q-9 -60 25 -95.5t91 -35.5z" />
    <glyph glyph-name="nine" unicode="9" 
d="M158 0l217 274h-4q-36 -16 -81 -16q-86 0 -144 58t-43 166q16 113 93.5 175.5t182.5 62.5q102 0 164 -63.5t47 -164.5q-8 -60 -31.5 -105t-68.5 -104l-219 -283h-113zM494 489q9 65 -26 106t-101 41t-112 -41t-55 -106t25.5 -106t100.5 -41t112.5 41t55.5 106z" />
    <glyph glyph-name="colon" unicode=":" horiz-adv-x="278" 
d="M188 348q-27 0 -44 19.5t-13 46.5t26 46.5t49 19.5t44 -19.5t13 -46.5t-26 -46.5t-49 -19.5zM81 60q4 27 26.5 46.5t49.5 19.5t43.5 -19.5t12.5 -46.5t-26 -46.5t-49 -19.5t-44 19.5t-13 46.5z" />
    <glyph glyph-name="semicolon" unicode=";" horiz-adv-x="278" 
d="M230 114l-119 -246h-82l104 246h97zM131 413q4 27 26 46.5t49 19.5t44 -19.5t13 -46.5t-26 -46.5t-49 -19.5t-44 19.5t-13 46.5z" />
    <glyph glyph-name="less" unicode="&#x3c;" horiz-adv-x="666" 
d="M617 121l-11 -78l-503 219l11 82l565 220l-11 -79l-477 -182z" />
    <glyph glyph-name="equal" unicode="=" horiz-adv-x="666" 
d="M125 420h534l-11 -78h-534zM103 263h534l-11 -78h-534z" />
    <glyph glyph-name="greater" unicode="&#x3e;" horiz-adv-x="666" 
d="M134 485l11 78l503 -219l-11 -82l-565 -220l11 79l478 182z" />
    <glyph glyph-name="question" unicode="?" horiz-adv-x="500" 
d="M334 198h-96l8 61q5 36 17 59t24.5 35.5t49.5 43.5q5 4 20.5 17t21.5 18.5t18.5 17t18.5 20t13.5 19.5t11.5 23t6 24q7 45 -19.5 75.5t-71.5 30.5q-48 0 -83 -30.5t-49 -81.5l-100 10q25 86 91.5 136t154.5 50q87 0 136.5 -49.5t37.5 -135.5q-11 -78 -59 -120l-80 -71
q-37 -33 -48 -50.5t-17 -57.5zM199 60q4 27 26.5 46.5t49.5 19.5t43.5 -19.5t12.5 -46.5t-26 -46.5t-49 -19.5t-44 19.5t-13 46.5z" />
    <glyph glyph-name="at" unicode="@" horiz-adv-x="800" 
d="M490 485q-67 0 -114 -55t-57 -132q-11 -80 60 -80q57 0 105 58.5t57 120.5q5 38 -8 63t-43 25zM691 544l-122 -277q-7 -15 -9 -25q-1 -13 5 -18.5t21 -5.5q44 0 91.5 59.5t58.5 136.5q16 114 -50 180t-177 66q-127 0 -223 -88.5t-115 -219.5q-18 -132 56 -218t201 -86
q73 0 139 26.5t108 74.5h79q-52 -75 -146.5 -121t-191.5 -46q-158 0 -251 108.5t-71 265.5q22 153 146 261.5t277 108.5q142 0 229 -87t69 -217q-17 -119 -106 -200.5t-168 -81.5q-27 0 -42.5 17t-11.5 47h-4q-70 -64 -133 -64q-62 0 -93 45t-22 112q14 104 88.5 185
t172.5 81q82 0 96 -76h2l24 57h73z" />
    <glyph glyph-name="A" unicode="A" horiz-adv-x="704" 
d="M1 0l412 708h87l203 -708h-112l-46 175h-337l-95 -175h-112zM253 259h268l-86 325h-2z" />
    <glyph glyph-name="B" unicode="B" horiz-adv-x="630" 
d="M91 0l100 708h246q96 0 149 -45t41 -132q-17 -115 -144 -156l-1 -2q64 -5 101.5 -55t27.5 -121q-13 -92 -91 -144.5t-186 -52.5h-243zM275 624l-30 -210h131q59 0 99 25.5t48 80.5q6 45 -18 74.5t-79 29.5h-151zM233 330l-34 -246h141q35 0 67.5 8t64.5 37t38 75
q8 62 -28 94t-107 32h-142z" />
    <glyph glyph-name="C" unicode="C" horiz-adv-x="704" 
d="M751 616l-89 -61q-24 38 -67 59.5t-93 21.5q-117 0 -201.5 -82.5t-102.5 -205.5q-16 -116 44.5 -196t180.5 -80q117 0 198 95l73 -61q-13 -15 -33.5 -32t-56.5 -40t-88 -37.5t-108 -14.5q-108 0 -185 55t-108.5 137.5t-18.5 173.5q23 166 141 272t281 106q73 0 136 -28
t97 -82z" />
    <glyph glyph-name="D" unicode="D" horiz-adv-x="741" 
d="M75 0l100 708h247q72 0 129 -17t91.5 -45.5t59.5 -65.5t33 -76t12 -78t-3 -72q-10 -69 -44.5 -132t-89 -113t-133.5 -79.5t-171 -29.5h-231zM258 618l-74 -528h121q128 0 223.5 69t113.5 195q5 22 2 50.5t-8 58t-23.5 57.5t-43.5 49.5t-68.5 35t-98.5 13.5h-144z" />
    <glyph glyph-name="E" unicode="E" horiz-adv-x="611" 
d="M91 0l100 708h457l-13 -90h-361l-30 -211h336l-12 -90h-336l-32 -227h379l-13 -90h-475z" />
    <glyph glyph-name="F" unicode="F" horiz-adv-x="574" 
d="M91 0l100 708h445l-13 -90h-349l-31 -222h325l-13 -90h-325l-43 -306h-96z" />
    <glyph glyph-name="G" unicode="G" horiz-adv-x="778" 
d="M497 396h253l-49 -349q-54 -30 -132 -47.5t-146 -17.5q-174 0 -261 107.5t-65 264.5q22 159 141 265.5t280 106.5q175 0 251 -92l-78 -73q-67 75 -186 75t-204 -81.5t-102 -200.5q-17 -120 50.5 -201t184.5 -81q108 0 179 37l28 197h-157z" />
    <glyph glyph-name="H" unicode="H" horiz-adv-x="741" 
d="M91 0l100 708h96l-42 -294h367l42 294h96l-100 -708h-96l46 324h-367l-46 -324h-96z" />
    <glyph glyph-name="I" unicode="I" horiz-adv-x="278" 
d="M91 0l100 708h96l-100 -708h-96z" />
    <glyph glyph-name="J" unicode="J" horiz-adv-x="482" 
d="M345 233l67 475h96l-72 -506q-9 -63 -36 -109t-63.5 -68.5t-70.5 -32.5t-68 -10q-77 0 -121.5 39.5t-48.5 115.5l97 21q3 -41 25 -63.5t61 -22.5q112 0 134 161z" />
    <glyph glyph-name="K" unicode="K" horiz-adv-x="648" 
d="M91 0l100 708h96l-43 -306h8l356 306h134l-388 -327l311 -381h-140l-280 354h-8l-50 -354h-96z" />
    <glyph glyph-name="L" unicode="L" horiz-adv-x="519" 
d="M91 0l100 708h96l-87 -618h325l-13 -90h-421z" />
    <glyph glyph-name="M" unicode="M" horiz-adv-x="906" 
d="M84 0l100 708h143l149 -536h4l299 536h143l-100 -708h-96l82 582h-2l-321 -582h-64l-157 582h-2l-82 -582h-96z" />
    <glyph glyph-name="N" unicode="N" horiz-adv-x="796" 
d="M91 0l100 708h126l308 -582h2l82 582h96l-100 -708h-122l-312 582h-2l-82 -582h-96z" />
    <glyph glyph-name="O" unicode="O" horiz-adv-x="832" 
d="M413 -18q-161 0 -250 106.5t-66 265.5q22 159 141 265.5t280 106.5t250 -106.5t67 -265.5q-23 -159 -142 -265.5t-280 -106.5zM426 72q119 0 204.5 81.5t102.5 200.5t-46 200.5t-182 81.5t-204 -81.5t-102 -200.5t45.5 -200.5t181.5 -81.5z" />
    <glyph glyph-name="P" unicode="P" horiz-adv-x="593" 
d="M91 0l100 708h249q65 0 109 -18t63.5 -48.5t25.5 -62.5t1 -69t-20.5 -69t-43.5 -62.5t-77 -48.5t-114 -18h-153l-44 -312h-96zM275 624l-32 -228h126q151 0 168 114q5 34 -4.5 58t-30.5 35.5t-45 16t-56 4.5h-126z" />
    <glyph glyph-name="Q" unicode="Q" horiz-adv-x="832" 
d="M834 84l-12 -84h-408q-153 0 -245.5 103t-70.5 259t141.5 260t275.5 104q151 0 242 -102t69 -252q-13 -93 -67 -172t-135 -114v-2h210zM423 90q115 0 199.5 80t101.5 198q16 113 -48 190.5t-177 77.5q-110 0 -196 -77.5t-102 -188.5q-17 -118 45.5 -199t176.5 -81z" />
    <glyph glyph-name="R" unicode="R" horiz-adv-x="611" 
d="M91 0l100 708h249q65 0 109 -18t63.5 -48.5t25.5 -62.5t1 -69q-10 -70 -66 -124t-135 -63l156 -323h-120l-136 312h-107l-44 -312h-96zM275 624l-32 -228h126q151 0 168 114q5 34 -4.5 58t-30.5 35.5t-45 16t-56 4.5h-126z" />
    <glyph glyph-name="S" unicode="S" 
d="M44 80l89 68q19 -37 56.5 -56.5t82.5 -19.5q53 0 101.5 32t56.5 86q6 44 -26 70t-81.5 41t-98 35t-78 68t-18.5 124q11 73 81.5 135.5t186.5 62.5q138 0 193 -81l-88 -71q-14 28 -45.5 45t-72.5 17q-72 0 -109.5 -33.5t-43.5 -74.5q-5 -36 11 -60.5t44.5 -38t64.5 -24.5
t71 -25t63 -33.5t42 -56.5t7 -89q-14 -100 -93 -159.5t-184 -59.5q-71 0 -127.5 24.5t-84.5 73.5z" />
    <glyph glyph-name="T" unicode="T" horiz-adv-x="574" 
d="M239 0l87 618h-228l13 90h552l-13 -90h-228l-87 -618h-96z" />
    <glyph glyph-name="U" unicode="U" horiz-adv-x="704" 
d="M178 708h96l-61 -434q-7 -49 2 -92t46.5 -76.5t100.5 -33.5q91 0 143 61.5t64 140.5l61 434h96l-64 -449q-17 -122 -106 -199.5t-207 -77.5t-185 77.5t-50 199.5z" />
    <glyph glyph-name="V" unicode="V" horiz-adv-x="630" 
d="M267 0l-173 708h111l127 -576h2l297 576h105l-379 -708h-90z" />
    <glyph glyph-name="W" unicode="W" horiz-adv-x="962" 
d="M208 0l-107 708h100l76 -566h2l247 566h110l87 -566h2l236 566h100l-306 -708h-101l-91 578h-2l-252 -578h-101z" />
    <glyph glyph-name="X" unicode="X" horiz-adv-x="648" 
d="M-2 0l309 372l-190 336h123l145 -272l221 272h120l-284 -335l208 -373h-126l-160 307l-247 -307h-119z" />
    <glyph glyph-name="Y" unicode="Y" horiz-adv-x="612" 
d="M258 0l42 302l-210 406h123l149 -311l243 311h117l-326 -406l-42 -302h-96z" />
    <glyph glyph-name="Z" unicode="Z" horiz-adv-x="593" 
d="M32 0l13 90l477 528h-391l13 90h511l-13 -90l-475 -528h407l-13 -90h-529z" />
    <glyph glyph-name="bracketleft" unicode="[" horiz-adv-x="278" 
d="M50 -156l125 888h174l-9 -66h-90l-107 -756h90l-9 -66h-174z" />
    <glyph glyph-name="backslash" unicode="\" horiz-adv-x="389" 
d="M313 -44l-211 770l73 26l211 -770z" />
    <glyph glyph-name="bracketright" unicode="]" horiz-adv-x="278" 
d="M10 -156l9 66h90l107 756h-90l9 66h174l-125 -888h-174z" />
    <glyph glyph-name="asciicircum" unicode="^" horiz-adv-x="666" 
d="M119 276l274 432h80l152 -432h-83l-121 353l-219 -353h-83z" />
    <glyph glyph-name="underscore" unicode="_" horiz-adv-x="500" 
d="M-18 -125l7 50h500l-7 -50h-500z" />
    <glyph glyph-name="grave" unicode="`" horiz-adv-x="240" 
d="M182 708l83 -144h-83l-128 144h128z" />
    <glyph glyph-name="a" unicode="a" horiz-adv-x="519" 
d="M175 360l-47 56q85 70 198 70q99 0 142.5 -45.5t33.5 -112.5l-34 -242q-6 -41 -8 -86h-80q1 24 7 72h-2q-66 -84 -178 -84q-69 0 -111 38t-33 104q12 86 89 125t195 39h66l3 20q6 40 -19.5 70t-79.5 30q-32 0 -61.5 -10t-41 -17.5t-39.5 -26.5zM404 228h-48
q-189 0 -202 -91q-5 -39 19 -58t72 -19q69 0 108 41.5t47 96.5z" />
    <glyph glyph-name="b" unicode="b" horiz-adv-x="611" 
d="M68 0l106 756h90l-49 -350h2q29 37 77 58.5t99 21.5q108 0 164.5 -70.5t41.5 -178.5q-15 -107 -91.5 -178t-184.5 -71q-49 0 -91 21.5t-62 58.5h-2l-10 -68h-90zM324 72q71 0 120 46t59 119q11 73 -25 119t-107 46t-120 -46t-60 -119q-10 -73 26 -119t107 -46z" />
    <glyph glyph-name="c" unicode="c" horiz-adv-x="482" 
d="M533 410l-77 -62q-42 53 -111 53q-70 0 -115.5 -48.5t-55.5 -119.5q-10 -68 26 -114.5t104 -46.5q70 0 123 53l55 -64q-77 -73 -191 -73q-109 0 -168.5 68.5t-44.5 178.5q16 110 94.5 180t188.5 70q113 0 172 -75z" />
    <glyph glyph-name="d" unicode="d" horiz-adv-x="611" 
d="M649 756l-106 -756h-90l10 68h-2q-32 -37 -80 -58.5t-97 -21.5q-108 0 -164.5 71t-41.5 178q15 108 91.5 178.5t184.5 70.5q51 0 93 -21.5t61 -58.5h2l49 350h90zM307 72q71 0 120 46t59 119q11 73 -25 119t-107 46t-120 -46t-60 -119q-10 -73 26 -119t107 -46z" />
    <glyph glyph-name="e" unicode="e" 
d="M545 204h-380q-9 -60 33 -99t107 -39q72 0 140 71l61 -52q-88 -97 -224 -97q-110 0 -167 70.5t-42 178.5q15 107 94.5 178t185.5 71q60 0 103.5 -22t63.5 -57.5t29 -80t0 -90.5zM175 276h284q7 62 -22.5 100t-95.5 38q-63 0 -111 -43.5t-55 -94.5z" />
    <glyph glyph-name="f" unicode="f" horiz-adv-x="333" 
d="M103 0l56 396h-102l11 78h102l15 106q13 97 57 142.5t131 45.5q38 0 66 -7l-21 -80q-21 9 -50 9q-46 0 -65.5 -26t-26.5 -81l-15 -109h107l-11 -78h-108l-56 -396h-90z" />
    <glyph glyph-name="g" unicode="g" horiz-adv-x="611" 
d="M610 474l-66 -470q-16 -108 -97 -176t-197 -68q-139 0 -220 85l72 76q62 -77 158 -77q92 0 138 47t56 117l10 70h-3q-30 -41 -77.5 -62.5t-98.5 -21.5q-104 0 -163 69.5t-44 173.5q15 107 91.5 178t184.5 71q49 0 91 -21.5t63 -58.5h2l10 68h90zM354 402q-71 0 -120 -46
t-60 -119q-10 -72 26 -115.5t108 -43.5t120 43.5t58 115.5q11 73 -25 119t-107 46z" />
    <glyph glyph-name="h" unicode="h" 
d="M68 0l106 756h90l-50 -355h2q23 38 68.5 61.5t99.5 23.5q74 0 117 -46t30 -135l-43 -305h-90l39 280q9 63 -17 92.5t-73 29.5q-59 0 -101.5 -39.5t-53.5 -118.5l-34 -244h-90z" />
    <glyph glyph-name="i" unicode="i" horiz-adv-x="240" 
d="M75 0l67 474h90l-67 -474h-90zM145 644q4 27 26 46.5t49 19.5t44 -19.5t13 -46.5q-5 -27 -27 -46.5t-49 -19.5t-43.5 19.5t-12.5 46.5z" />
    <glyph glyph-name="j" unicode="j" horiz-adv-x="240" 
d="M142 474h90l-77 -542q-21 -172 -169 -172q-33 0 -56 9l21 83q22 -8 36 -8q67 0 79 92zM145 644q4 27 26 46.5t49 19.5t44 -19.5t13 -46.5q-5 -27 -27 -46.5t-49 -19.5t-43.5 19.5t-12.5 46.5z" />
    <glyph glyph-name="k" unicode="k" horiz-adv-x="519" 
d="M68 0l106 756h90l-68 -488l232 205h125l-251 -215l204 -258h-128l-185 246l-35 -246h-90z" />
    <glyph glyph-name="l" unicode="l" horiz-adv-x="240" 
d="M75 0l106 756h90l-106 -756h-90z" />
    <glyph glyph-name="m" unicode="m" horiz-adv-x="852" 
d="M68 0l67 474h84l-11 -74h2q12 27 59.5 56.5t104.5 29.5q103 0 136 -88q28 42 72.5 65t89.5 23q181 0 151 -210l-39 -276h-90l37 264q9 64 -7 101t-75 37q-62 0 -97 -38t-45 -105l-36 -259h-90l35 248q6 46 5 80t-21 54t-62 20q-52 0 -93 -40t-52 -116l-35 -246h-90z" />
    <glyph glyph-name="n" unicode="n" 
d="M68 0l67 474h90l-11 -73h2q23 38 68.5 61.5t99.5 23.5q74 0 117 -46t30 -135l-43 -305h-90l39 280q9 63 -17 92.5t-73 29.5q-59 0 -101.5 -39.5t-53.5 -118.5l-34 -244h-90z" />
    <glyph glyph-name="o" unicode="o" horiz-adv-x="594" 
d="M174 237q-10 -73 26 -119t107 -46t120 46t59 119q11 73 -25 119t-107 46t-120 -46t-60 -119zM78 237q15 104 98.5 176.5t188.5 72.5q106 0 169 -72.5t48 -176.5q-14 -104 -97.5 -176.5t-189.5 -72.5q-105 0 -168 72.5t-49 176.5z" />
    <glyph glyph-name="p" unicode="p" horiz-adv-x="611" 
d="M28 -282l107 756h90l-10 -68h2q31 37 79 58.5t97 21.5q108 0 164.5 -71t41.5 -178q-15 -108 -91.5 -178.5t-184.5 -70.5q-51 0 -92.5 21.5t-60.5 58.5h-2l-50 -350h-90zM371 402q-71 0 -120 -46t-60 -119q-10 -73 26 -119t107 -46t120 46t59 119q11 73 -25 119t-107 46z
" />
    <glyph glyph-name="q" unicode="q" horiz-adv-x="611" 
d="M610 474l-99 -702h-90l42 296h-2q-29 -37 -77.5 -58.5t-99.5 -21.5q-108 0 -164.5 70.5t-41.5 178.5q15 107 91.5 178t184.5 71q49 0 91 -21.5t63 -58.5h2l10 68h90zM354 402q-71 0 -120 -46t-60 -119q-10 -73 26 -119t107 -46t120 46t59 119q11 73 -25 119t-107 46z" />
    <glyph glyph-name="r" unicode="r" horiz-adv-x="370" 
d="M68 0l67 474h90l-11 -73h2q22 37 65.5 61t88.5 24q22 0 39 -6l-17 -97q-26 7 -43 7q-136 0 -158 -152l-33 -238h-90z" />
    <glyph glyph-name="s" unicode="s" horiz-adv-x="444" 
d="M447 408l-77 -53q-31 47 -90 47q-33 0 -58 -14.5t-29 -38.5q-2 -12 1 -21.5t11 -16.5t16 -12t21 -9t21 -6t22.5 -5t18.5 -4q65 -16 96 -46.5t22 -91.5q-7 -51 -41 -85.5t-78 -49t-94 -14.5q-61 0 -102.5 19t-68.5 65l76 56q48 -56 107 -56q38 0 69.5 15.5t35.5 44.5
q1 11 -1 20.5t-10.5 16.5t-14 11.5t-20 9t-19.5 6.5t-21.5 5.5t-17.5 3.5q-33 8 -54 16.5t-41.5 23.5t-28 38.5t-2.5 56.5q10 70 68.5 108t131.5 38q115 0 151 -78z" />
    <glyph glyph-name="t" unicode="t" horiz-adv-x="370" 
d="M389 474l-11 -78h-129l-31 -215q-3 -28 -4.5 -52t12 -40.5t45.5 -16.5q42 0 66 14l-11 -82q-31 -16 -84 -16q-40 0 -66.5 10.5t-38.5 23.5t-16 38t-2.5 42t5.5 47l35 247h-104l11 78h104l18 133h90l-18 -133h129z" />
    <glyph glyph-name="u" unicode="u" 
d="M555 474l-67 -474h-90l10 73h-2q-23 -38 -68.5 -61.5t-99.5 -23.5q-74 0 -116.5 45.5t-29.5 135.5l43 305h90l-40 -280q-8 -63 18 -92.5t73 -29.5q60 0 101.5 39.5t52.5 118.5l35 244h90z" />
    <glyph glyph-name="v" unicode="v" horiz-adv-x="500" 
d="M204 0l-126 474h104l91 -363l187 363h96l-253 -474h-99z" />
    <glyph glyph-name="w" unicode="w" horiz-adv-x="759" 
d="M167 0l-89 474h101l57 -354h2l163 354h95l70 -354h2l152 354h95l-220 -474h-91l-75 354h-2l-163 -354h-97z" />
    <glyph glyph-name="x" unicode="x" horiz-adv-x="519" 
d="M6 0l228 253l-137 221h116l91 -168l137 168h109l-193 -221l156 -253h-116l-112 199l-168 -199h-111z" />
    <glyph glyph-name="y" unicode="y" horiz-adv-x="500" 
d="M208 -3l-130 477h104l89 -370h2l186 370h97l-306 -576q-39 -72 -76.5 -105t-105.5 -33q-47 0 -78 13l23 82q25 -11 52 -11q39 0 60 18.5t43 59.5z" />
    <glyph glyph-name="z" unicode="z" horiz-adv-x="463" 
d="M35 0l11 81l314 315h-260l11 78h370l-12 -80l-315 -316h285l-11 -78h-393z" />
    <glyph glyph-name="braceleft" unicode="{" horiz-adv-x="333" 
d="M407 732l-10 -72h-45q-51 0 -63 -87l-22 -151q-5 -42 -26.5 -73.5t-40.5 -43.5t-35 -16l-1 -3q11 -1 22.5 -7.5t25.5 -22t18 -40.5t-1 -64l-21 -150q-10 -86 39 -86h45l-10 -72h-75q-42 0 -67.5 39t-15.5 114l18 134q6 54 -13 85.5t-54 31.5l11 78q35 0 62.5 31.5
t37.5 85.5l22 158q8 60 45.5 95.5t78.5 35.5h75z" />
    <glyph glyph-name="bar" unicode="|" horiz-adv-x="375" 
d="M201 831h74v-1107h-74v1107z" />
    <glyph glyph-name="braceright" unicode="}" horiz-adv-x="333" 
d="M7 -156l10 72h45q51 0 63 87l22 151q7 61 40 93.5t62 39.5l1 3q-11 1 -22.5 7.5t-25.5 22t-18 40.5t1 64l21 150q10 86 -39 86h-45l10 72h75q42 0 67.5 -39t15.5 -114l-18 -134q-8 -53 12 -85t55 -32l-11 -78q-35 0 -64 -32t-36 -85l-23 -158q-8 -60 -45 -95.5t-78 -35.5
h-75z" />
    <glyph glyph-name="asciitilde" unicode="~" horiz-adv-x="666" 
d="M583 378l31 -62q-63 -88 -140 -88q-39 0 -111 36q-70 36 -101 36q-47 0 -94 -72l-31 62q64 88 145 88q44 0 108 -36q2 -1 15.5 -8.5t17 -9.5t14.5 -7t16.5 -6.5t14.5 -3.5t16 -2q51 0 99 73z" />
    <glyph glyph-name="uni00A0" unicode="&#xa0;" horiz-adv-x="278" 
 />
    <glyph glyph-name="exclamdown" unicode="&#xa1;" horiz-adv-x="278" 
d="M62 -222l71 504h96l-71 -504h-96zM265 426q-4 -27 -26 -46.5t-49 -19.5t-44 19.5t-13 46.5t26 46.5t49 19.5t44 -19.5t13 -46.5z" />
    <glyph glyph-name="cent" unicode="&#xa2;" 
d="M399 408l-48 -342q64 2 114 52l50 -58q-65 -64 -175 -72l-9 -66h-54l9 66q-97 10 -146 79.5t-35 169.5q14 101 81.5 168t169.5 81l10 66h54l-10 -66q106 -5 157 -76l-74 -59q-37 55 -94 57zM297 66l48 342q-61 -9 -100.5 -57t-48.5 -112t17.5 -113t83.5 -60z" />
    <glyph glyph-name="sterling" unicode="&#xa3;" 
d="M488 400l-10 -72h-162l-34 -244h246l-12 -84h-444l12 84h102l34 244h-96l10 72h96l14 100q14 93 80.5 156.5t170.5 63.5q105 0 160 -62l-70 -70q-43 48 -92 48q-58 0 -101.5 -39t-54.5 -121l-11 -76h162z" />
    <glyph glyph-name="currency" unicode="&#xa4;" 
d="M99 555l65 56l42 -48q77 49 158 49q83 0 144 -49l56 48l49 -56l-56 -49q39 -65 28 -151q-13 -85 -70 -151l42 -49l-65 -57l-42 49q-73 -49 -158 -49q-83 0 -144 49l-56 -49l-49 57l56 49q-40 68 -28 151q11 82 70 151zM149 355q-10 -74 35 -126.5t119 -52.5t133.5 52.5
t70.5 126.5q10 74 -35 126.5t-119 52.5t-133.5 -52.5t-70.5 -126.5z" />
    <glyph glyph-name="yen" unicode="&#xa5;" 
d="M236 0l26 186h-171l9 66h171l8 53l-13 28h-154l9 66h114l-140 309h100l134 -316l230 316h102l-230 -309h116l-9 -66h-154l-21 -28l-8 -53h171l-9 -66h-171l-26 -186h-84z" />
    <glyph glyph-name="brokenbar" unicode="&#xa6;" horiz-adv-x="374" 
d="M201 748h73v-388h-73v388zM201 194h73v-387h-73v387z" />
    <glyph glyph-name="section" unicode="&#xa7;" 
d="M571 626l-90 -46q-17 60 -93 62q-42 0 -73 -20t-37 -58q-4 -32 23 -57t67.5 -43.5t81 -39.5t65.5 -58t18 -87q-12 -87 -101 -131q58 -44 48 -121q-11 -81 -79.5 -126t-154.5 -45q-70 0 -120 30t-67 91l93 41q14 -78 113 -78q42 0 74.5 21.5t38.5 65.5q4 28 -23 51.5
t-68 42.5t-81 40.5t-66 55t-20 76.5q14 103 119 151q-73 45 -63 118q11 76 78 120t148 44q59 0 106 -25t63 -75zM373 362l-74 38q-78 -29 -85 -79q-3 -20 1.5 -35t19.5 -28t22 -17t30 -16q7 -4 11 -6l72 -37q27 16 47.5 39.5t24.5 48.5q3 23 -8.5 42t-24.5 28t-36 22z" />
    <glyph glyph-name="dieresis" unicode="&#xa8;" horiz-adv-x="240" 
d="M118 714q24 0 41 -16.5t13 -40.5q-4 -27 -24 -45t-47 -18t-42 18t-11 45q4 24 25 40.5t45 16.5zM322 714q24 0 41 -16.5t13 -40.5q-4 -27 -24 -45t-47 -18t-42 18t-11 45q4 24 25 40.5t45 16.5z" />
    <glyph glyph-name="copyright" unicode="&#xa9;" horiz-adv-x="800" 
d="M78 354q22 154 146 263t278 109t248 -109t72 -263t-146.5 -263t-278.5 -109t-247.5 109t-71.5 263zM552 286h77q-26 -72 -81.5 -114.5t-126.5 -42.5q-103 0 -153.5 62.5t-36.5 165.5q14 105 80.5 166.5t170.5 61.5q76 0 121.5 -39.5t46.5 -113.5h-77q-10 81 -100 81
q-70 0 -111.5 -40.5t-52.5 -113.5q-9 -68 23.5 -113t98.5 -45q92 0 121 85zM144 354q-18 -127 59 -216.5t204 -89.5t229 89.5t120 216.5t-59 216.5t-204 89.5t-229 -89.5t-120 -216.5z" />
    <glyph glyph-name="ordfeminine" unicode="&#xaa;" horiz-adv-x="337" 
d="M368 425h-66l6 44l-2 1q-31 -51 -107 -51q-44 0 -72 22.5t-22 63.5q5 35 26.5 57.5t57 31.5t62.5 11.5t64 2.5h12l2 10q3 20 -13 34t-48 14q-54 0 -94 -33l-29 45q54 42 129 42q79 0 103 -26.5t18 -72.5zM321 560h-2q-24 0 -37.5 -0.5t-36 -3t-35.5 -7.5t-24.5 -15
t-13.5 -25q-5 -36 54 -36q41 0 64 18.5t28 49.5z" />
    <glyph glyph-name="guillemotleft" unicode="&#xab;" horiz-adv-x="500" 
d="M197 27l-116 216l176 216l56 -41l-142 -175l94 -175zM395 27l-116 216l176 216l56 -41l-142 -175l94 -175z" />
    <glyph glyph-name="logicalnot" unicode="&#xac;" horiz-adv-x="666" 
d="M659 420l-39 -279h-78l28 201h-456l11 78h534z" />
    <glyph glyph-name="uni00AD" unicode="&#xad;" horiz-adv-x="316" 
d="M321 284l-12 -84h-246l12 84h246z" />
    <glyph glyph-name="registered" unicode="&#xae;" horiz-adv-x="800" 
d="M277 144l60 425h164q75 0 108 -33t24 -95q-7 -53 -39 -82t-79 -35l85 -180h-82l-81 174h-57l-25 -174h-78zM406 503l-17 -119h57q31 0 49.5 2.5t37 16.5t22.5 41t-11 41t-33 16.5t-48 1.5h-57zM78 354q22 154 146 263t278 109t248 -109t72 -263t-146.5 -263t-278.5 -109
t-247.5 109t-71.5 263zM144 354q-18 -127 59 -216.5t204 -89.5t229 89.5t120 216.5t-59 216.5t-204 89.5t-229 -89.5t-120 -216.5z" />
    <glyph glyph-name="macron" unicode="&#xaf;" horiz-adv-x="240" 
d="M358 666l-10 -66h-288l10 66h288z" />
    <glyph glyph-name="degree" unicode="&#xb0;" horiz-adv-x="400" 
d="M131 571q9 62 59 105.5t111 43.5q62 0 99.5 -44t28.5 -105q-8 -61 -58 -105t-112 -44q-61 0 -98.5 43.5t-29.5 105.5zM197 571q-5 -35 16.5 -59t55.5 -24q35 0 62.5 24.5t31.5 58.5q5 34 -15.5 58.5t-55.5 24.5q-34 0 -62 -24t-33 -59z" />
    <glyph glyph-name="plusminus" unicode="&#xb1;" horiz-adv-x="666" 
d="M110 315l11 78h228l23 163h78l-23 -163h228l-11 -78h-228l-21 -150h-78l21 150h-228zM73 51l11 78h534l-11 -78h-534z" />
    <glyph glyph-name="twosuperior" unicode="&#xb2;" horiz-adv-x="361" 
d="M67 289l10 76l202 160q51 42 55 73q4 26 -12.5 41t-44.5 15q-29 0 -49.5 -16t-26.5 -43l-84 6q13 57 59 88t110 31q66 0 103.5 -31t28.5 -89q-8 -63 -88 -124l-158 -121h213l-9 -66h-309z" />
    <glyph glyph-name="threesuperior" unicode="&#xb3;" horiz-adv-x="361" 
d="M207 477l9 66h18q27 0 45 3t34 16.5t19 37.5q4 24 -12 39t-45 15q-52 0 -75 -45l-81 20q21 45 64 68t97 23q63 0 101 -29.5t30 -82.5q-5 -35 -29.5 -61.5t-61.5 -34.5v-2q41 -5 60.5 -34t13.5 -69q-8 -58 -57.5 -91t-114.5 -33q-130 0 -144 99l86 20q8 -53 67 -53
q32 0 57 18t29 46q5 37 -22 51t-71 13h-17z" />
    <glyph glyph-name="acute" unicode="&#xb4;" horiz-adv-x="240" 
d="M133 564l125 144h128l-170 -144h-83z" />
    <glyph glyph-name="mu" unicode="&#xb5;" 
d="M36 -228l99 702h90l-40 -280q-8 -63 18 -92.5t73 -29.5q60 0 101.5 39.5t52.5 118.5l35 244h90l-67 -474h-90l10 73h-2q-23 -38 -68.5 -61.5t-99.5 -23.5q-46 0 -79 18l-33 -234h-90z" />
    <glyph glyph-name="paragraph" unicode="&#xb6;" horiz-adv-x="600" 
d="M242 -126l63 444q-91 0 -142.5 53t-40.5 132q13 97 82 151t175 54h249l-118 -834h-78l108 768h-112l-108 -768h-78z" />
    <glyph glyph-name="periodcentered" unicode="&#xb7;" horiz-adv-x="278" 
d="M116 303q4 27 26 46.5t49 19.5t44 -19.5t13 -46.5t-26.5 -46.5t-49.5 -19.5t-43.5 19.5t-12.5 46.5z" />
    <glyph glyph-name="cedilla" unicode="&#xb8;" horiz-adv-x="240" 
d="M-24 -205l25 40q35 -15 76 -15q61 0 67 42q5 34 -27.5 39.5t-62.5 -6.5l-18 18l73 87h49l-53 -61h29q38 1 62.5 -18t19.5 -54q-7 -49 -47.5 -72t-90.5 -23q-57 0 -102 23z" />
    <glyph glyph-name="onesuperior" unicode="&#xb9;" horiz-adv-x="361" 
d="M195 289l50 359l-95 -72l-36 46l142 98h71l-60 -431h-72z" />
    <glyph glyph-name="ordmasculine" unicode="&#xba;" horiz-adv-x="386" 
d="M294 720q75 0 114 -41.5t29 -109.5t-60 -109t-125 -41t-114 41t-29 109q10 69 60 110t125 41zM286 660q-44 0 -71.5 -24.5t-33.5 -66.5t14.5 -66t64.5 -24t71.5 24t33.5 66t-14.5 66.5t-64.5 24.5z" />
    <glyph glyph-name="guillemotright" unicode="&#xbb;" horiz-adv-x="500" 
d="M372 459l115 -216l-175 -216l-56 41l141 175l-93 175zM174 459l115 -216l-175 -216l-56 41l141 175l-93 175z" />
    <glyph glyph-name="onequarter" unicode="&#xbc;" horiz-adv-x="834" 
d="M673 0l13 94h-196l8 58l223 279h79l-39 -271h62l-9 -66h-62l-13 -94h-66zM689 160l27 187h-2l-143 -187h118zM152 0l543 740l56 -32l-543 -740zM201 289l50 359l-95 -72l-36 46l142 98h71l-60 -431h-72z" />
    <glyph glyph-name="onehalf" unicode="&#xbd;" horiz-adv-x="834" 
d="M199 289l50 359l-95 -72l-36 46l142 98h71l-60 -431h-72zM494 0l11 76l201 160q51 40 55 73q4 26 -12.5 41t-44.5 15q-29 0 -49.5 -16t-26.5 -43l-83 6q13 57 59 88t110 31q65 0 102.5 -31t29.5 -89q-10 -64 -89 -124l-158 -121h213l-9 -66h-309zM140 0l543 740l56 -32
l-543 -740z" />
    <glyph glyph-name="threequarters" unicode="&#xbe;" horiz-adv-x="834" 
d="M693 0l13 94h-196l8 58l223 279h79l-39 -271h62l-9 -66h-62l-13 -94h-66zM715 160l27 187h-2l-143 -187h118zM192 0l543 740l56 -32l-543 -740zM206 477l9 66h18q27 0 45 3t34 16.5t19 37.5q4 24 -12 39t-45 15q-52 0 -75 -45l-81 20q21 45 64 68t97 23q63 0 101 -29.5
t30 -82.5q-5 -35 -29.5 -61.5t-61.5 -34.5v-2q41 -5 60.5 -34t13.5 -69q-8 -58 -57.5 -91t-114.5 -33q-130 0 -144 99l86 20q8 -53 67 -53q32 0 57 18t29 46q5 37 -22 51t-71 13h-17z" />
    <glyph glyph-name="questiondown" unicode="&#xbf;" horiz-adv-x="500" 
d="M234 288h96l-8 -61q-5 -36 -16.5 -59t-24 -35.5t-49.5 -43.5q-4 -4 -23.5 -20t-25.5 -21.5t-20.5 -20t-20.5 -24.5t-12.5 -24.5t-8.5 -28.5q-7 -45 19.5 -75.5t71.5 -30.5q48 0 83.5 31t48.5 81l100 -10q-25 -86 -91.5 -136t-154.5 -50q-87 0 -136.5 49.5t-37.5 135.5
q11 78 59 120l80 71q37 33 48 50.5t17 57.5zM369 426q-4 -27 -26 -46.5t-49 -19.5t-44 19.5t-13 46.5t26 46.5t49 19.5t44 -19.5t13 -46.5z" />
    <glyph glyph-name="Agrave" unicode="&#xc0;" horiz-adv-x="704" 
d="M1 0l412 708h87l203 -708h-112l-46 175h-337l-95 -175h-112zM253 259h268l-86 325h-2zM439 892l84 -144h-83l-129 144h128z" />
    <glyph glyph-name="Aacute" unicode="&#xc1;" horiz-adv-x="704" 
d="M1 0l412 708h87l203 -708h-112l-46 175h-337l-95 -175h-112zM253 259h268l-86 325h-2zM391 748l124 144h128l-169 -144h-83z" />
    <glyph glyph-name="Acircumflex" unicode="&#xc2;" horiz-adv-x="704" 
d="M1 0l412 708h87l203 -708h-112l-46 175h-337l-95 -175h-112zM253 259h268l-86 325h-2zM622 748h-91l-60 96l-88 -96h-91l132 144h106z" />
    <glyph glyph-name="Atilde" unicode="&#xc3;" horiz-adv-x="704" 
d="M1 0l412 708h87l203 -708h-112l-46 175h-337l-95 -175h-112zM253 259h268l-86 325h-2zM339 760h-48q13 43 43.5 73.5t71.5 30.5q29 0 81 -23q5 -2 13 -6t12.5 -6t12 -3.5t14.5 -1.5q37 0 55 44h48q-13 -44 -40.5 -74t-68.5 -30q-28 0 -78 21q-45 19 -63 19q-33 0 -53 -44
z" />
    <glyph glyph-name="Adieresis" unicode="&#xc4;" horiz-adv-x="704" 
d="M1 0l412 708h87l203 -708h-112l-46 175h-337l-95 -175h-112zM253 259h268l-86 325h-2zM376 898q24 0 41 -16.5t13 -40.5q-4 -27 -24 -45t-47 -18t-42 18t-11 45q4 24 25 40.5t45 16.5zM580 898q24 0 41 -16.5t13 -40.5q-4 -27 -24 -45t-47 -18t-42 18t-11 45
q4 24 25 40.5t45 16.5z" />
    <glyph glyph-name="Aring" unicode="&#xc5;" horiz-adv-x="704" 
d="M1 0l412 708h87l203 -708h-112l-46 175h-337l-95 -175h-112zM253 259h268l-86 325h-2zM366 825q6 41 40.5 70t75.5 29q42 0 68.5 -28.5t19.5 -69.5q-5 -42 -39.5 -70.5t-76.5 -28.5q-41 0 -67.5 28.5t-20.5 69.5zM528 825q4 24 -11.5 40.5t-40.5 16.5q-24 0 -44 -16.5
t-24 -40.5q-4 -23 12 -39.5t40 -16.5t44 16t24 40z" />
    <glyph glyph-name="AE" unicode="&#xc6;" horiz-adv-x="963" 
d="M-8 0l558 708h456l-13 -90h-295l-30 -211h277l-12 -90h-277l-32 -227h307l-13 -90h-403l24 172h-304l-125 -172h-118zM300 262h252l50 356h-19z" />
    <glyph glyph-name="Ccedilla" unicode="&#xc7;" horiz-adv-x="704" 
d="M751 616l-89 -61q-24 38 -67 59.5t-93 21.5q-117 0 -201.5 -82.5t-102.5 -205.5q-16 -116 44.5 -196t180.5 -80q117 0 198 95l73 -61q-13 -15 -33.5 -32t-56.5 -40t-88 -37.5t-108 -14.5q-8 0 -12 1l-39 -44h29q38 1 62.5 -18t19.5 -54q-7 -49 -47.5 -72t-90.5 -23
q-57 0 -102 23l25 40q35 -15 76 -15q61 0 67 42q5 34 -27.5 39.5t-62.5 -6.5l-18 18l62 74q-134 21 -203 127t-51 234q23 166 141 272t281 106q73 0 136 -28t97 -82z" />
    <glyph glyph-name="Egrave" unicode="&#xc8;" horiz-adv-x="611" 
d="M91 0l100 708h457l-13 -90h-361l-30 -211h336l-12 -90h-336l-32 -227h379l-13 -90h-475zM393 892l84 -144h-83l-129 144h128z" />
    <glyph glyph-name="Eacute" unicode="&#xc9;" horiz-adv-x="611" 
d="M91 0l100 708h457l-13 -90h-361l-30 -211h336l-12 -90h-336l-32 -227h379l-13 -90h-475zM345 748l124 144h128l-169 -144h-83z" />
    <glyph glyph-name="Ecircumflex" unicode="&#xca;" horiz-adv-x="611" 
d="M91 0l100 708h457l-13 -90h-361l-30 -211h336l-12 -90h-336l-32 -227h379l-13 -90h-475zM576 748h-91l-60 96l-88 -96h-91l132 144h106z" />
    <glyph glyph-name="Edieresis" unicode="&#xcb;" horiz-adv-x="611" 
d="M91 0l100 708h457l-13 -90h-361l-30 -211h336l-12 -90h-336l-32 -227h379l-13 -90h-475zM330 898q24 0 41 -16.5t13 -40.5q-4 -27 -24 -45t-47 -18t-42 18t-11 45q4 24 25 40.5t45 16.5zM534 898q24 0 41 -16.5t13 -40.5q-4 -27 -24 -45t-47 -18t-42 18t-11 45
q4 24 25 40.5t45 16.5z" />
    <glyph glyph-name="Igrave" unicode="&#xcc;" horiz-adv-x="278" 
d="M91 0l100 708h96l-100 -708h-96zM226 892l84 -144h-83l-129 144h128z" />
    <glyph glyph-name="Iacute" unicode="&#xcd;" horiz-adv-x="278" 
d="M91 0l100 708h96l-100 -708h-96zM178 748l124 144h128l-169 -144h-83z" />
    <glyph glyph-name="Icircumflex" unicode="&#xce;" horiz-adv-x="278" 
d="M91 0l100 708h96l-100 -708h-96zM409 748h-91l-60 96l-88 -96h-91l132 144h106z" />
    <glyph glyph-name="Idieresis" unicode="&#xcf;" horiz-adv-x="278" 
d="M91 0l100 708h96l-100 -708h-96zM163 898q24 0 41 -16.5t13 -40.5q-4 -27 -24 -45t-47 -18t-42 18t-11 45q4 24 25 40.5t45 16.5zM367 898q24 0 41 -16.5t13 -40.5q-4 -27 -24 -45t-47 -18t-42 18t-11 45q4 24 25 40.5t45 16.5z" />
    <glyph glyph-name="Eth" unicode="&#xd0;" horiz-adv-x="741" 
d="M75 0l47 336h-72l10 66h72l43 306h247q72 0 129 -17t91.5 -45.5t59.5 -65.5t33 -76t12 -78t-3 -72q-10 -69 -44.5 -132t-89 -113t-133.5 -79.5t-171 -29.5h-231zM218 336l-34 -246h121q128 0 223.5 69t113.5 195q5 22 2 50.5t-8 58t-23.5 57.5t-43.5 49.5t-68.5 35
t-98.5 13.5h-144l-30 -216h234l-10 -66h-234z" />
    <glyph glyph-name="Ntilde" unicode="&#xd1;" horiz-adv-x="796" 
d="M91 0l100 708h126l308 -582h2l82 582h96l-100 -708h-122l-312 582h-2l-82 -582h-96zM385 760h-48q13 43 43.5 73.5t71.5 30.5q29 0 81 -23q5 -2 13 -6t12.5 -6t12 -3.5t14.5 -1.5q37 0 55 44h48q-13 -44 -40.5 -74t-68.5 -30q-28 0 -78 21q-45 19 -63 19q-33 0 -53 -44z
" />
    <glyph glyph-name="Ograve" unicode="&#xd2;" horiz-adv-x="832" 
d="M413 -18q-161 0 -250 106.5t-66 265.5q22 159 141 265.5t280 106.5t250 -106.5t67 -265.5q-23 -159 -142 -265.5t-280 -106.5zM426 72q119 0 204.5 81.5t102.5 200.5t-46 200.5t-182 81.5t-204 -81.5t-102 -200.5t45.5 -200.5t181.5 -81.5zM503 892l84 -144h-83l-129 144
h128z" />
    <glyph glyph-name="Oacute" unicode="&#xd3;" horiz-adv-x="832" 
d="M413 -18q-161 0 -250 106.5t-66 265.5q22 159 141 265.5t280 106.5t250 -106.5t67 -265.5q-23 -159 -142 -265.5t-280 -106.5zM426 72q119 0 204.5 81.5t102.5 200.5t-46 200.5t-182 81.5t-204 -81.5t-102 -200.5t45.5 -200.5t181.5 -81.5zM455 748l124 144h128
l-169 -144h-83z" />
    <glyph glyph-name="Ocircumflex" unicode="&#xd4;" horiz-adv-x="832" 
d="M413 -18q-161 0 -250 106.5t-66 265.5q22 159 141 265.5t280 106.5t250 -106.5t67 -265.5q-23 -159 -142 -265.5t-280 -106.5zM426 72q119 0 204.5 81.5t102.5 200.5t-46 200.5t-182 81.5t-204 -81.5t-102 -200.5t45.5 -200.5t181.5 -81.5zM686 748h-91l-60 96l-88 -96
h-91l132 144h106z" />
    <glyph glyph-name="Otilde" unicode="&#xd5;" horiz-adv-x="832" 
d="M413 -18q-161 0 -250 106.5t-66 265.5q22 159 141 265.5t280 106.5t250 -106.5t67 -265.5q-23 -159 -142 -265.5t-280 -106.5zM426 72q119 0 204.5 81.5t102.5 200.5t-46 200.5t-182 81.5t-204 -81.5t-102 -200.5t45.5 -200.5t181.5 -81.5zM403 760h-48q13 43 43.5 73.5
t71.5 30.5q29 0 81 -23q5 -2 13 -6t12.5 -6t12 -3.5t14.5 -1.5q37 0 55 44h48q-13 -44 -40.5 -74t-68.5 -30q-28 0 -78 21q-45 19 -63 19q-33 0 -53 -44z" />
    <glyph glyph-name="Odieresis" unicode="&#xd6;" horiz-adv-x="832" 
d="M413 -18q-161 0 -250 106.5t-66 265.5q22 159 141 265.5t280 106.5t250 -106.5t67 -265.5q-23 -159 -142 -265.5t-280 -106.5zM426 72q119 0 204.5 81.5t102.5 200.5t-46 200.5t-182 81.5t-204 -81.5t-102 -200.5t45.5 -200.5t181.5 -81.5zM440 898q24 0 41 -16.5
t13 -40.5q-4 -27 -24 -45t-47 -18t-42 18t-11 45q4 24 25 40.5t45 16.5zM644 898q24 0 41 -16.5t13 -40.5q-4 -27 -24 -45t-47 -18t-42 18t-11 45q4 24 25 40.5t45 16.5z" />
    <glyph glyph-name="multiply" unicode="&#xd7;" horiz-adv-x="666" 
d="M81 92l240 211l-183 212l63 55l182 -212l243 212l46 -55l-241 -212l182 -212l-64 -55l-181 212l-241 -212z" />
    <glyph glyph-name="Oslash" unicode="&#xd8;" horiz-adv-x="832" 
d="M697 540l-433 -409q64 -59 162 -59q119 0 204.5 81.5t102.5 200.5q15 108 -36 186zM231 173l432 407q-64 56 -158 56q-119 0 -204 -81.5t-102 -200.5q-15 -104 32 -181zM94 -30l-38 38l98 93q-78 103 -57 253q22 159 141 265.5t280 106.5q132 0 219 -76l96 90l37 -38
l-96 -90q82 -103 61 -258q-23 -159 -142 -265.5t-280 -106.5q-135 0 -222 79z" />
    <glyph glyph-name="Ugrave" unicode="&#xd9;" horiz-adv-x="704" 
d="M178 708h96l-61 -434q-7 -49 2 -92t46.5 -76.5t100.5 -33.5q91 0 143 61.5t64 140.5l61 434h96l-64 -449q-17 -122 -106 -199.5t-207 -77.5t-185 77.5t-50 199.5zM439 892l84 -144h-83l-129 144h128z" />
    <glyph glyph-name="Uacute" unicode="&#xda;" horiz-adv-x="704" 
d="M178 708h96l-61 -434q-7 -49 2 -92t46.5 -76.5t100.5 -33.5q91 0 143 61.5t64 140.5l61 434h96l-64 -449q-17 -122 -106 -199.5t-207 -77.5t-185 77.5t-50 199.5zM391 748l124 144h128l-169 -144h-83z" />
    <glyph glyph-name="Ucircumflex" unicode="&#xdb;" horiz-adv-x="704" 
d="M178 708h96l-61 -434q-7 -49 2 -92t46.5 -76.5t100.5 -33.5q91 0 143 61.5t64 140.5l61 434h96l-64 -449q-17 -122 -106 -199.5t-207 -77.5t-185 77.5t-50 199.5zM622 748h-91l-60 96l-88 -96h-91l132 144h106z" />
    <glyph glyph-name="Udieresis" unicode="&#xdc;" horiz-adv-x="704" 
d="M178 708h96l-61 -434q-7 -49 2 -92t46.5 -76.5t100.5 -33.5q91 0 143 61.5t64 140.5l61 434h96l-64 -449q-17 -122 -106 -199.5t-207 -77.5t-185 77.5t-50 199.5zM376 898q24 0 41 -16.5t13 -40.5q-4 -27 -24 -45t-47 -18t-42 18t-11 45q4 24 25 40.5t45 16.5zM580 898
q24 0 41 -16.5t13 -40.5q-4 -27 -24 -45t-47 -18t-42 18t-11 45q4 24 25 40.5t45 16.5z" />
    <glyph glyph-name="Yacute" unicode="&#xdd;" horiz-adv-x="612" 
d="M258 0l42 302l-210 406h123l149 -311l243 311h117l-326 -406l-42 -302h-96zM345 748l124 144h128l-169 -144h-83z" />
    <glyph glyph-name="Thorn" unicode="&#xde;" horiz-adv-x="593" 
d="M91 0l100 708h96l-21 -145h153q65 0 109 -18t63.5 -48.5t25.5 -62.5t1 -69q-5 -36 -20 -69t-43.5 -63t-77.5 -48t-114 -18h-153l-23 -167h-96zM254 479l-32 -228h126q153 0 168 114q10 65 -29 89.5t-107 24.5h-126z" />
    <glyph glyph-name="germandbls" unicode="&#xdf;" horiz-adv-x="611" 
d="M68 0l72 509q8 58 23 101t44 80.5t77.5 57.5t116.5 20q87 0 138.5 -48t39.5 -133q-9 -60 -44 -100t-89 -55l-1 -2q67 -10 110.5 -63.5t30.5 -146.5q-15 -106 -91.5 -169t-183.5 -63q-36 0 -69 9l11 81q24 -6 52 -6q75 0 125.5 41.5t60.5 114.5q11 76 -32 115.5t-120 39.5
h-14l12 84h16q51 0 86 29.5t42 79.5q8 56 -21.5 82t-75.5 26q-130 0 -153 -164l-73 -520h-90z" />
    <glyph glyph-name="agrave" unicode="&#xe0;" horiz-adv-x="519" 
d="M175 360l-47 56q85 70 198 70q99 0 142.5 -45.5t33.5 -112.5l-34 -242q-6 -41 -8 -86h-80q1 24 7 72h-2q-66 -84 -178 -84q-69 0 -111 38t-33 104q12 86 89 125t195 39h66l3 20q6 40 -19.5 70t-79.5 30q-32 0 -61.5 -10t-41 -17.5t-39.5 -26.5zM404 228h-48
q-189 0 -202 -91q-5 -39 19 -58t72 -19q69 0 108 41.5t47 96.5zM322 708l83 -144h-83l-128 144h128z" />
    <glyph glyph-name="aacute" unicode="&#xe1;" horiz-adv-x="519" 
d="M175 360l-47 56q85 70 198 70q99 0 142.5 -45.5t33.5 -112.5l-34 -242q-6 -41 -8 -86h-80q1 24 7 72h-2q-66 -84 -178 -84q-69 0 -111 38t-33 104q12 86 89 125t195 39h66l3 20q6 40 -19.5 70t-79.5 30q-32 0 -61.5 -10t-41 -17.5t-39.5 -26.5zM404 228h-48
q-189 0 -202 -91q-5 -39 19 -58t72 -19q69 0 108 41.5t47 96.5zM273 564l125 144h128l-170 -144h-83z" />
    <glyph glyph-name="acircumflex" unicode="&#xe2;" horiz-adv-x="519" 
d="M175 360l-47 56q85 70 198 70q99 0 142.5 -45.5t33.5 -112.5l-34 -242q-6 -41 -8 -86h-80q1 24 7 72h-2q-66 -84 -178 -84q-69 0 -111 38t-33 104q12 86 89 125t195 39h66l3 20q6 40 -19.5 70t-79.5 30q-32 0 -61.5 -10t-41 -17.5t-39.5 -26.5zM404 228h-48
q-189 0 -202 -91q-5 -39 19 -58t72 -19q69 0 108 41.5t47 96.5zM504 564h-91l-60 96l-88 -96h-91l133 144h106z" />
    <glyph glyph-name="atilde" unicode="&#xe3;" horiz-adv-x="519" 
d="M175 360l-47 56q85 70 198 70q99 0 142.5 -45.5t33.5 -112.5l-34 -242q-6 -41 -8 -86h-80q1 24 7 72h-2q-66 -84 -178 -84q-69 0 -111 38t-33 104q12 86 89 125t195 39h66l3 20q6 40 -19.5 70t-79.5 30q-32 0 -61.5 -10t-41 -17.5t-39.5 -26.5zM404 228h-48
q-189 0 -202 -91q-5 -39 19 -58t72 -19q69 0 108 41.5t47 96.5zM221 576h-48q13 43 44 73.5t72 30.5q28 0 80 -23q5 -2 13 -6t12.5 -6t12 -3.5t14.5 -1.5q37 0 55 44h48q-13 -44 -40 -74t-68 -30q-29 0 -79 21q-43 19 -63 19q-33 0 -53 -44z" />
    <glyph glyph-name="adieresis" unicode="&#xe4;" horiz-adv-x="519" 
d="M175 360l-47 56q85 70 198 70q99 0 142.5 -45.5t33.5 -112.5l-34 -242q-6 -41 -8 -86h-80q1 24 7 72h-2q-66 -84 -178 -84q-69 0 -111 38t-33 104q12 86 89 125t195 39h66l3 20q6 40 -19.5 70t-79.5 30q-32 0 -61.5 -10t-41 -17.5t-39.5 -26.5zM404 228h-48
q-189 0 -202 -91q-5 -39 19 -58t72 -19q69 0 108 41.5t47 96.5zM258 714q24 0 41 -16.5t13 -40.5q-4 -27 -24 -45t-47 -18t-42 18t-11 45q4 24 25 40.5t45 16.5zM462 714q24 0 41 -16.5t13 -40.5q-4 -27 -24 -45t-47 -18t-42 18t-11 45q4 24 25 40.5t45 16.5z" />
    <glyph glyph-name="aring" unicode="&#xe5;" horiz-adv-x="519" 
d="M175 360l-47 56q85 70 198 70q99 0 142.5 -45.5t33.5 -112.5l-34 -242q-6 -41 -8 -86h-80q1 24 7 72h-2q-66 -84 -178 -84q-69 0 -111 38t-33 104q12 86 89 125t195 39h66l3 20q6 40 -19.5 70t-79.5 30q-32 0 -61.5 -10t-41 -17.5t-39.5 -26.5zM404 228h-48
q-189 0 -202 -91q-5 -39 19 -58t72 -19q69 0 108 41.5t47 96.5zM249 651q6 41 40.5 70t75.5 29q42 0 68.5 -28.5t20.5 -69.5q-5 -42 -39.5 -70.5t-76.5 -28.5q-41 0 -67.5 28.5t-21.5 69.5zM411 651q4 24 -11.5 40.5t-39.5 16.5q-25 0 -45 -16.5t-24 -40.5q-3 -23 13 -39.5
t40 -16.5t44 16.5t23 39.5z" />
    <glyph glyph-name="ae" unicode="&#xe6;" horiz-adv-x="852" 
d="M848 246l-6 -42h-353q-9 -60 23.5 -102t98.5 -42q82 0 134 75l65 -55q-50 -50 -100 -74t-112 -24q-127 0 -171 97q-84 -97 -208 -97q-90 0 -130 45.5t-31 107.5q8 53 43.5 86t78 44t95.5 11h140l2 15q7 53 -19.5 88t-82.5 35q-68 0 -141 -54l-48 57q86 69 198 69
q119 0 160 -76q78 76 176 76q52 0 90.5 -17t57 -44t31 -59.5t11.5 -63.5t-2 -56zM405 204h-142q-99 0 -109 -69q-4 -34 21.5 -57.5t66.5 -23.5q58 0 105 37.5t56 98.5zM499 276h257q14 132 -108 132q-61 0 -101 -37.5t-48 -94.5z" />
    <glyph glyph-name="ccedilla" unicode="&#xe7;" horiz-adv-x="482" 
d="M533 410l-77 -62q-42 53 -111 53q-70 0 -115.5 -48.5t-55.5 -119.5q-10 -68 26 -114.5t104 -46.5q70 0 123 53l55 -64q-73 -70 -183 -72l-43 -50h29q38 1 62.5 -18t19.5 -54q-7 -49 -47.5 -72t-90.5 -23q-57 0 -102 23l25 40q34 -15 76 -15q61 0 67 42q5 34 -27.5 39.5
t-62.5 -6.5l-18 18l66 79q-93 11 -141 77.5t-34 165.5q16 110 94.5 180t188.5 70q113 0 172 -75z" />
    <glyph glyph-name="egrave" unicode="&#xe8;" 
d="M545 204h-380q-9 -60 33 -99t107 -39q72 0 140 71l61 -52q-88 -97 -224 -97q-110 0 -167 70.5t-42 178.5q15 107 94.5 178t185.5 71q60 0 103.5 -22t63.5 -57.5t29 -80t0 -90.5zM175 276h284q7 62 -22.5 100t-95.5 38q-63 0 -111 -43.5t-55 -94.5zM340 708l83 -144h-83
l-128 144h128z" />
    <glyph glyph-name="eacute" unicode="&#xe9;" 
d="M545 204h-380q-9 -60 33 -99t107 -39q72 0 140 71l61 -52q-88 -97 -224 -97q-110 0 -167 70.5t-42 178.5q15 107 94.5 178t185.5 71q60 0 103.5 -22t63.5 -57.5t29 -80t0 -90.5zM175 276h284q7 62 -22.5 100t-95.5 38q-63 0 -111 -43.5t-55 -94.5zM291 564l125 144h128
l-170 -144h-83z" />
    <glyph glyph-name="ecircumflex" unicode="&#xea;" 
d="M545 204h-380q-9 -60 33 -99t107 -39q72 0 140 71l61 -52q-88 -97 -224 -97q-110 0 -167 70.5t-42 178.5q15 107 94.5 178t185.5 71q60 0 103.5 -22t63.5 -57.5t29 -80t0 -90.5zM175 276h284q7 62 -22.5 100t-95.5 38q-63 0 -111 -43.5t-55 -94.5zM522 564h-91l-60 96
l-88 -96h-91l133 144h106z" />
    <glyph glyph-name="edieresis" unicode="&#xeb;" 
d="M545 204h-380q-9 -60 33 -99t107 -39q72 0 140 71l61 -52q-88 -97 -224 -97q-110 0 -167 70.5t-42 178.5q15 107 94.5 178t185.5 71q60 0 103.5 -22t63.5 -57.5t29 -80t0 -90.5zM175 276h284q7 62 -22.5 100t-95.5 38q-63 0 -111 -43.5t-55 -94.5zM276 714q24 0 41 -16.5
t13 -40.5q-4 -27 -24 -45t-47 -18t-42 18t-11 45q4 24 25 40.5t45 16.5zM480 714q24 0 41 -16.5t13 -40.5q-4 -27 -24 -45t-47 -18t-42 18t-11 45q4 24 25 40.5t45 16.5z" />
    <glyph glyph-name="igrave" unicode="&#xec;" horiz-adv-x="240" 
d="M75 0l67 474h90l-67 -474h-90zM182 708l83 -144h-83l-128 144h128z" />
    <glyph glyph-name="iacute" unicode="&#xed;" horiz-adv-x="240" 
d="M75 0l67 474h90l-67 -474h-90zM133 564l125 144h128l-170 -144h-83z" />
    <glyph glyph-name="icircumflex" unicode="&#xee;" horiz-adv-x="240" 
d="M75 0l67 474h90l-67 -474h-90zM364 564h-91l-60 96l-88 -96h-91l133 144h106z" />
    <glyph glyph-name="idieresis" unicode="&#xef;" horiz-adv-x="240" 
d="M75 0l67 474h90l-67 -474h-90zM118 714q24 0 41 -16.5t13 -40.5q-4 -27 -24 -45t-47 -18t-42 18t-11 45q4 24 25 40.5t45 16.5zM322 714q24 0 41 -16.5t13 -40.5q-4 -27 -24 -45t-47 -18t-42 18t-11 45q4 24 25 40.5t45 16.5z" />
    <glyph glyph-name="eth" unicode="&#xf0;" horiz-adv-x="594" 
d="M529 756l46 -44l-120 -55q75 -94 111 -187t21 -201q-18 -128 -96 -204.5t-196 -76.5q-105 0 -168 72.5t-49 176.5q15 104 98.5 176.5t188.5 72.5q82 0 118 -50l3 2q-36 84 -119 180l-114 -52l-41 46l113 53l-75 71l86 46l78 -78zM174 237q-10 -73 26 -119t107 -46t120 46
t59 119q11 73 -25 119t-107 46t-120 -46t-60 -119z" />
    <glyph glyph-name="ntilde" unicode="&#xf1;" 
d="M68 0l67 474h90l-11 -73h2q23 38 68.5 61.5t99.5 23.5q74 0 117 -46t30 -135l-43 -305h-90l39 280q9 63 -17 92.5t-73 29.5q-59 0 -101.5 -39.5t-53.5 -118.5l-34 -244h-90zM239 576h-48q13 43 44 73.5t72 30.5q28 0 80 -23q5 -2 13 -6t12.5 -6t12 -3.5t14.5 -1.5
q37 0 55 44h48q-13 -44 -40 -74t-68 -30q-29 0 -79 21q-43 19 -63 19q-33 0 -53 -44z" />
    <glyph glyph-name="ograve" unicode="&#xf2;" horiz-adv-x="594" 
d="M174 237q-10 -73 26 -119t107 -46t120 46t59 119q11 73 -25 119t-107 46t-120 -46t-60 -119zM78 237q15 104 98.5 176.5t188.5 72.5q106 0 169 -72.5t48 -176.5q-14 -104 -97.5 -176.5t-189.5 -72.5q-105 0 -168 72.5t-49 176.5zM359 708l83 -144h-83l-128 144h128z" />
    <glyph glyph-name="oacute" unicode="&#xf3;" horiz-adv-x="594" 
d="M174 237q-10 -73 26 -119t107 -46t120 46t59 119q11 73 -25 119t-107 46t-120 -46t-60 -119zM78 237q15 104 98.5 176.5t188.5 72.5q106 0 169 -72.5t48 -176.5q-14 -104 -97.5 -176.5t-189.5 -72.5q-105 0 -168 72.5t-49 176.5zM310 564l125 144h128l-170 -144h-83z" />
    <glyph glyph-name="ocircumflex" unicode="&#xf4;" horiz-adv-x="594" 
d="M174 237q-10 -73 26 -119t107 -46t120 46t59 119q11 73 -25 119t-107 46t-120 -46t-60 -119zM78 237q15 104 98.5 176.5t188.5 72.5q106 0 169 -72.5t48 -176.5q-14 -104 -97.5 -176.5t-189.5 -72.5q-105 0 -168 72.5t-49 176.5zM541 564h-91l-60 96l-88 -96h-91l133 144
h106z" />
    <glyph glyph-name="otilde" unicode="&#xf5;" horiz-adv-x="594" 
d="M174 237q-10 -73 26 -119t107 -46t120 46t59 119q11 73 -25 119t-107 46t-120 -46t-60 -119zM78 237q15 104 98.5 176.5t188.5 72.5q106 0 169 -72.5t48 -176.5q-14 -104 -97.5 -176.5t-189.5 -72.5q-105 0 -168 72.5t-49 176.5zM258 576h-48q13 43 44 73.5t72 30.5
q28 0 80 -23q5 -2 13 -6t12.5 -6t12 -3.5t14.5 -1.5q37 0 55 44h48q-13 -44 -40 -74t-68 -30q-29 0 -79 21q-43 19 -63 19q-33 0 -53 -44z" />
    <glyph glyph-name="odieresis" unicode="&#xf6;" horiz-adv-x="594" 
d="M174 237q-10 -73 26 -119t107 -46t120 46t59 119q11 73 -25 119t-107 46t-120 -46t-60 -119zM78 237q15 104 98.5 176.5t188.5 72.5q106 0 169 -72.5t48 -176.5q-14 -104 -97.5 -176.5t-189.5 -72.5q-105 0 -168 72.5t-49 176.5zM295 714q24 0 41 -16.5t13 -40.5
q-4 -27 -24 -45t-47 -18t-42 18t-11 45q4 24 25 40.5t45 16.5zM499 714q24 0 41 -16.5t13 -40.5q-4 -27 -24 -45t-47 -18t-42 18t-11 45q4 24 25 40.5t45 16.5z" />
    <glyph glyph-name="divide" unicode="&#xf7;" horiz-adv-x="666" 
d="M114 341h534l-11 -78h-534zM333 470q4 27 26 46.5t49 19.5t44 -19.5t13 -46.5t-26 -46.5t-49 -19.5t-44 19.5t-13 46.5zM286 134q4 27 26 46.5t49 19.5t44 -19.5t13 -46.5t-26 -46.5t-49 -19.5t-44 19.5t-13 46.5z" />
    <glyph glyph-name="oslash" unicode="&#xf8;" horiz-adv-x="594" 
d="M190 135l261 232q-37 35 -97 35q-71 0 -120 -46t-60 -119q-8 -62 16 -102zM74 -32l-32 36l76 68q-54 68 -40 165q15 104 98.5 176.5t188.5 72.5q94 0 154 -58l86 75l31 -36l-86 -76q44 -66 32 -154q-14 -104 -97.5 -176.5t-189.5 -72.5q-83 0 -143 49zM477 326l-255 -227
q32 -27 85 -27q71 0 120 46t59 119q8 51 -9 89z" />
    <glyph glyph-name="ugrave" unicode="&#xf9;" 
d="M555 474l-67 -474h-90l10 73h-2q-23 -38 -68.5 -61.5t-99.5 -23.5q-74 0 -116.5 45.5t-29.5 135.5l43 305h90l-40 -280q-8 -63 18 -92.5t73 -29.5q60 0 101.5 39.5t52.5 118.5l35 244h90zM340 708l83 -144h-83l-128 144h128z" />
    <glyph glyph-name="uacute" unicode="&#xfa;" 
d="M555 474l-67 -474h-90l10 73h-2q-23 -38 -68.5 -61.5t-99.5 -23.5q-74 0 -116.5 45.5t-29.5 135.5l43 305h90l-40 -280q-8 -63 18 -92.5t73 -29.5q60 0 101.5 39.5t52.5 118.5l35 244h90zM291 564l125 144h128l-170 -144h-83z" />
    <glyph glyph-name="ucircumflex" unicode="&#xfb;" 
d="M555 474l-67 -474h-90l10 73h-2q-23 -38 -68.5 -61.5t-99.5 -23.5q-74 0 -116.5 45.5t-29.5 135.5l43 305h90l-40 -280q-8 -63 18 -92.5t73 -29.5q60 0 101.5 39.5t52.5 118.5l35 244h90zM522 564h-91l-60 96l-88 -96h-91l133 144h106z" />
    <glyph glyph-name="udieresis" unicode="&#xfc;" 
d="M555 474l-67 -474h-90l10 73h-2q-23 -38 -68.5 -61.5t-99.5 -23.5q-74 0 -116.5 45.5t-29.5 135.5l43 305h90l-40 -280q-8 -63 18 -92.5t73 -29.5q60 0 101.5 39.5t52.5 118.5l35 244h90zM276 714q24 0 41 -16.5t13 -40.5q-4 -27 -24 -45t-47 -18t-42 18t-11 45
q4 24 25 40.5t45 16.5zM480 714q24 0 41 -16.5t13 -40.5q-4 -27 -24 -45t-47 -18t-42 18t-11 45q4 24 25 40.5t45 16.5z" />
    <glyph glyph-name="yacute" unicode="&#xfd;" horiz-adv-x="500" 
d="M208 -3l-130 477h104l89 -370h2l186 370h97l-306 -576q-39 -72 -76.5 -105t-105.5 -33q-47 0 -78 13l23 82q25 -11 52 -11q39 0 60 18.5t43 59.5zM263 564l125 144h128l-170 -144h-83z" />
    <glyph glyph-name="thorn" unicode="&#xfe;" horiz-adv-x="611" 
d="M36 -228l138 984h90l-49 -350h2q29 37 77 58.5t99 21.5q108 0 164.5 -70.5t41.5 -178.5q-15 -107 -91.5 -178t-184.5 -71q-49 0 -91 21.5t-62 58.5h-2l-42 -296h-90zM324 72q71 0 120 46t59 119q11 73 -25 119t-107 46t-120 -46t-60 -119q-10 -73 26 -119t107 -46z" />
    <glyph glyph-name="ydieresis" unicode="&#xff;" horiz-adv-x="500" 
d="M208 -3l-130 477h104l89 -370h2l186 370h97l-306 -576q-39 -72 -76.5 -105t-105.5 -33q-47 0 -78 13l23 82q25 -11 52 -11q39 0 60 18.5t43 59.5zM248 714q24 0 41 -16.5t13 -40.5q-4 -27 -24 -45t-47 -18t-42 18t-11 45q4 24 25 40.5t45 16.5zM452 714q24 0 41 -16.5
t13 -40.5q-4 -27 -24 -45t-47 -18t-42 18t-11 45q4 24 25 40.5t45 16.5z" />
    <glyph glyph-name="dotlessi" unicode="&#x131;" horiz-adv-x="240" 
d="M75 0l67 474h90l-67 -474h-90z" />
    <glyph glyph-name="Lslash" unicode="&#x141;" horiz-adv-x="519" 
d="M91 0l29 209l-80 -63l12 89l81 62l58 411h96l-47 -328l243 188l-13 -89l-242 -187l-28 -202h325l-13 -90h-421z" />
    <glyph glyph-name="lslash" unicode="&#x142;" horiz-adv-x="240" 
d="M75 0l42 298l-89 -78l13 90l89 78l51 368h90l-39 -278l89 77l-13 -90l-88 -77l-55 -388h-90z" />
    <glyph glyph-name="OE" unicode="&#x152;" horiz-adv-x="981" 
d="M936 90l-13 -90h-456q-192 0 -286.5 98t-72.5 256q23 162 146 258t313 96h444l-13 -90h-294l-30 -211h276l-12 -90h-276l-32 -227h306zM534 90l74 528h-61q-141 0 -231 -76t-106 -188q-16 -117 52 -190.5t211 -73.5h61z" />
    <glyph glyph-name="oe" unicode="&#x153;" horiz-adv-x="926" 
d="M813 135l67 -49q-82 -98 -213 -98q-62 0 -110.5 23t-70.5 69q-21 -24 -40.5 -40.5t-65.5 -34t-102 -17.5q-112 0 -166.5 70t-39.5 179q15 108 93.5 178.5t187.5 70.5q121 0 180 -91q80 91 199 91q101 0 153 -66t37 -172l-6 -44h-359q-8 -58 22 -98t101 -40q80 0 133 69z
M567 276h263q6 55 -22 96.5t-88 41.5q-59 0 -102.5 -44.5t-50.5 -93.5zM471 237q10 71 -21 121t-105 50q-73 0 -119.5 -48t-57.5 -123q-10 -73 21.5 -122t99.5 -49q84 0 128 48.5t54 122.5z" />
    <glyph glyph-name="Scaron" unicode="&#x160;" 
d="M44 80l89 68q19 -37 56.5 -56.5t82.5 -19.5q53 0 101.5 32t56.5 86q6 44 -26 70t-81.5 41t-98 35t-78 68t-18.5 124q11 73 81.5 135.5t186.5 62.5q138 0 193 -81l-88 -71q-14 28 -45.5 45t-72.5 17q-72 0 -109.5 -33.5t-43.5 -74.5q-5 -36 11 -60.5t44.5 -38t64.5 -24.5
t71 -25t63 -33.5t42 -56.5t7 -89q-14 -100 -93 -159.5t-184 -59.5q-71 0 -127.5 24.5t-84.5 73.5zM330 748l-92 144h87l65 -96l87 96h91l-132 -144h-106z" />
    <glyph glyph-name="scaron" unicode="&#x161;" horiz-adv-x="444" 
d="M447 408l-77 -53q-31 47 -90 47q-33 0 -58 -14.5t-29 -38.5q-2 -12 1 -21.5t11 -16.5t16 -12t21 -9t21 -6t22.5 -5t18.5 -4q65 -16 96 -46.5t22 -91.5q-7 -51 -41 -85.5t-78 -49t-94 -14.5q-61 0 -102.5 19t-68.5 65l76 56q48 -56 107 -56q38 0 69.5 15.5t35.5 44.5
q1 11 -1 20.5t-10.5 16.5t-14 11.5t-20 9t-19.5 6.5t-21.5 5.5t-17.5 3.5q-33 8 -54 16.5t-41.5 23.5t-28 38.5t-2.5 56.5q10 70 68.5 108t131.5 38q115 0 151 -78zM248 564l-91 144h87l64 -96l88 96h91l-133 -144h-106z" />
    <glyph glyph-name="Ydieresis" unicode="&#x178;" horiz-adv-x="612" 
d="M258 0l42 302l-210 406h123l149 -311l243 311h117l-326 -406l-42 -302h-96zM330 898q24 0 41 -16.5t13 -40.5q-4 -27 -24 -45t-47 -18t-42 18t-11 45q4 24 25 40.5t45 16.5zM534 898q24 0 41 -16.5t13 -40.5q-4 -27 -24 -45t-47 -18t-42 18t-11 45q4 24 25 40.5t45 16.5z
" />
    <glyph glyph-name="Zcaron" unicode="&#x17d;" horiz-adv-x="593" 
d="M32 0l13 90l477 528h-391l13 90h511l-13 -90l-475 -528h407l-13 -90h-529zM349 748l-92 144h87l65 -96l87 96h91l-132 -144h-106z" />
    <glyph glyph-name="zcaron" unicode="&#x17e;" horiz-adv-x="463" 
d="M35 0l11 81l314 315h-260l11 78h370l-12 -80l-315 -316h285l-11 -78h-393zM258 564l-91 144h87l64 -96l88 96h91l-133 -144h-106z" />
    <glyph glyph-name="florin" unicode="&#x192;" 
d="M509 425l-10 -72h-134l-125 -368q-20 -59 -67 -94t-108 -35q-48 0 -94 25l48 71q30 -12 53 -12q27 0 46.5 16t27 32t15.5 41l109 324h-108l10 72h122l47 141q23 69 70.5 111.5t103.5 42.5q73 0 114 -24l-51 -75q-19 15 -56 15q-29 0 -55.5 -24t-43.5 -76l-34 -111h120z
" />
    <glyph glyph-name="circumflex" unicode="&#x2c6;" horiz-adv-x="240" 
d="M364 564h-91l-60 96l-88 -96h-91l133 144h106z" />
    <glyph glyph-name="caron" unicode="&#x2c7;" horiz-adv-x="240" 
d="M146 564l-91 144h87l64 -96l88 96h91l-133 -144h-106z" />
    <glyph glyph-name="uni02C9" unicode="&#x2c9;" horiz-adv-x="240" 
d="M358 666l-10 -66h-288l10 66h288z" />
    <glyph glyph-name="breve" unicode="&#x2d8;" horiz-adv-x="240" 
d="M62 702h55q1 -36 27 -54t66 -18q39 0 70 18t43 54h53q-14 -67 -61.5 -102.5t-115.5 -35.5t-105 35.5t-32 102.5z" />
    <glyph glyph-name="dotaccent" unicode="&#x2d9;" horiz-adv-x="240" 
d="M203 594q-27 0 -42 18t-11 45q4 24 25 40.5t45 16.5t41 -16.5t13 -40.5q-4 -27 -24 -45t-47 -18z" />
    <glyph glyph-name="ring" unicode="&#x2da;" horiz-adv-x="240" 
d="M109 651q6 41 40.5 70t75.5 29q42 0 68.5 -28.5t20.5 -69.5q-5 -42 -39.5 -70.5t-76.5 -28.5q-41 0 -67.5 28.5t-21.5 69.5zM271 651q4 24 -11.5 40.5t-39.5 16.5q-25 0 -45 -16.5t-24 -40.5q-3 -23 13 -39.5t40 -16.5t44 16.5t23 39.5z" />
    <glyph glyph-name="ogonek" unicode="&#x2db;" horiz-adv-x="240" 
d="M173 -142l16 -44q-45 -35 -96 -35q-41 0 -66 22.5t-21 62.5q10 71 113 143h54q-86 -73 -93 -125q-1 -43 43 -43q24 0 50 19z" />
    <glyph glyph-name="tilde" unicode="&#x2dc;" horiz-adv-x="240" 
d="M81 576h-48q13 43 44 73.5t72 30.5q28 0 80 -23q5 -2 13 -6t12.5 -6t12 -3.5t14.5 -1.5q37 0 55 44h48q-13 -44 -40 -74t-68 -30q-29 0 -79 21q-43 19 -63 19q-33 0 -53 -44z" />
    <glyph glyph-name="hungarumlaut" unicode="&#x2dd;" horiz-adv-x="240" 
d="M29 564l125 144h127l-170 -144h-82zM198 564l125 144h127l-170 -144h-82z" />
    <glyph glyph-name="uni03A9" unicode="&#x3a9;" horiz-adv-x="716" 
d="M203 71v3q-50 53 -76.5 132t-12.5 176q20 145 119 239.5t229 94.5q131 0 198 -98t48 -231q-14 -100 -64.5 -182.5t-113.5 -130.5v-3h148l-10 -71h-245l7 53q67 40 120 122t69 195q9 68 -5 129t-56.5 102.5t-107.5 41.5q-95 0 -164.5 -79t-85.5 -197q-16 -106 14.5 -191.5
t84.5 -122.5l-7 -53h-246l10 71h147z" />
    <glyph glyph-name="uni03BC" unicode="&#x3bc;" 
d="M36 -228l99 702h90l-40 -280q-8 -63 18 -92.5t73 -29.5q60 0 101.5 39.5t52.5 118.5l35 244h90l-67 -474h-90l10 73h-2q-23 -38 -68.5 -61.5t-99.5 -23.5q-46 0 -79 18l-33 -234h-90z" />
    <glyph glyph-name="pi" unicode="&#x3c0;" horiz-adv-x="577" 
d="M614 451h-78l-42 -302q-13 -91 -7 -149h-84q-12 31 3 142l43 309h-171q-19 -105 -59 -244t-76 -207h-84q38 80 77 214t56 237q-76 0 -109 -12l-5 58q46 29 152 29h403z" />
    <glyph glyph-name="endash" unicode="&#x2013;" horiz-adv-x="500" 
d="M540 282l-11 -78h-500l11 78h500z" />
    <glyph glyph-name="emdash" unicode="&#x2014;" horiz-adv-x="1000" 
d="M1040 282l-11 -78h-1000l11 78h1000z" />
    <glyph glyph-name="quoteleft" unicode="&#x2018;" horiz-adv-x="278" 
d="M121 462l119 246h82l-104 -246h-97z" />
    <glyph glyph-name="quoteright" unicode="&#x2019;" horiz-adv-x="278" 
d="M322 708l-119 -246h-82l104 246h97z" />
    <glyph glyph-name="quotesinglbase" unicode="&#x201a;" horiz-adv-x="278" 
d="M238 114l-119 -246h-82l104 246h97z" />
    <glyph glyph-name="quotedblleft" unicode="&#x201c;" horiz-adv-x="519" 
d="M354 708l-104 -246h-97l119 246h82zM531 708l-104 -246h-97l119 246h82z" />
    <glyph glyph-name="quotedblright" unicode="&#x201d;" horiz-adv-x="519" 
d="M354 708l-119 -246h-82l104 246h97zM531 708l-119 -246h-82l104 246h97z" />
    <glyph glyph-name="quotedblbase" unicode="&#x201e;" horiz-adv-x="519" 
d="M270 114l-119 -246h-82l104 246h97zM447 114l-119 -246h-82l104 246h97z" />
    <glyph glyph-name="dagger" unicode="&#x2020;" 
d="M215 -126l78 553h-198l11 78h198l29 203h90l-29 -203h198l-11 -78h-198l-78 -553h-90z" />
    <glyph glyph-name="daggerdbl" unicode="&#x2021;" 
d="M215 -126l27 192h-192l11 78h192l43 306h-192l11 78h192l26 180h90l-26 -180h192l-11 -78h-192l-43 -306h192l-11 -78h-192l-27 -192h-90z" />
    <glyph glyph-name="bullet" unicode="&#x2022;" horiz-adv-x="500" 
d="M123 354q11 74 70 125.5t132 51.5q74 0 118 -52t34 -125q-11 -74 -70 -125.5t-132 -51.5q-74 0 -118 52t-34 125z" />
    <glyph glyph-name="ellipsis" unicode="&#x2026;" horiz-adv-x="1000" 
d="M166 -6q-27 0 -44 19.5t-13 46.5t26.5 46.5t49.5 19.5t43.5 -19.5t12.5 -46.5t-26 -46.5t-49 -19.5zM499 -6q-27 0 -44 19.5t-13 46.5t26.5 46.5t49.5 19.5t43.5 -19.5t12.5 -46.5t-26 -46.5t-49 -19.5zM832 -6q-27 0 -44 19.5t-13 46.5t26.5 46.5t49.5 19.5t43.5 -19.5
t12.5 -46.5t-26 -46.5t-49 -19.5z" />
    <glyph glyph-name="perthousand" unicode="&#x2030;" horiz-adv-x="1056" 
d="M504 -18q-67 0 -107.5 47.5t-31.5 115.5q10 68 64 115t121 47q68 0 109 -47.5t31 -114.5q-9 -67 -63.5 -115t-122.5 -48zM515 54q37 0 67.5 26.5t35.5 64.5q5 37 -17.5 63.5t-60.5 26.5t-68 -26.5t-35 -63.5q-5 -38 18 -64.5t60 -26.5zM731 145q10 68 64 115t121 47
q68 0 109 -47.5t31 -114.5q-9 -67 -63.5 -115t-122.5 -48q-67 0 -107.5 47.5t-31.5 115.5zM881 54q37 0 67.5 26.5t35.5 64.5q5 37 -17.5 63.5t-60.5 26.5t-68 -26.5t-35 -63.5q-5 -38 18 -64.5t60 -26.5zM98 558q10 68 64 115t121 47q68 0 109 -47.5t31 -114.5
q-9 -67 -63 -115t-122 -48q-67 0 -108 47.5t-32 115.5zM170 558q-5 -38 18 -64.5t60 -26.5t67.5 26.5t35.5 64.5q5 37 -17.5 63.5t-60.5 26.5t-68 -26.5t-35 -63.5zM698 710l-547 -741l-58 31l549 740z" />
    <glyph glyph-name="guilsinglleft" unicode="&#x2039;" horiz-adv-x="315" 
d="M204 27l-116 216l176 216l56 -41l-142 -175l94 -175z" />
    <glyph glyph-name="guilsinglright" unicode="&#x203a;" horiz-adv-x="315" 
d="M120 27l-56 41l141 175l-93 175l68 41l115 -216z" />
    <glyph glyph-name="fraction" unicode="&#x2044;" horiz-adv-x="167" 
d="M433 708l-543 -740l-56 32l543 740z" />
    <glyph glyph-name="Euro" unicode="&#x20ac;" 
d="M590 609l31 75q-55 36 -143 36q-102 0 -183.5 -60t-124.5 -177h-57l-31 -67h66q-8 -34 -12 -70l-4 -27l-3 -24h-46l-28 -65h72q5 -242 216 -242q56 0 107 23.5t83 60.5l-42 49q-57 -59 -133 -59q-74 0 -108 41.5t-36 126.5h219l26 65h-242q0 4 1.5 13t1.5 10l3 25
q7 45 14 73h271l27 67h-276q65 160 204 160q86 0 127 -34z" />
    <glyph glyph-name="afii61289" unicode="&#x2113;" horiz-adv-x="492" 
d="M452 158l34 -36q-84 -129 -209 -129q-82 0 -116 50.5t-27 131.5l1 13q-5 -4 -27.5 -20.5t-34.5 -25.5l-18 49q5 4 39 30t51 40l38 271q17 127 71.5 186.5t122.5 59.5q62 0 88 -47t16 -120q-13 -90 -78 -179.5t-178 -186.5l-5 -36q-9 -74 15.5 -110.5t69.5 -36.5
q42 0 80.5 28t66.5 68zM266 537l-29 -208q169 162 186 282q13 102 -54 102q-32 0 -61 -42t-42 -134z" />
    <glyph glyph-name="trademark" unicode="&#x2122;" horiz-adv-x="1000" 
d="M200 296l48 346h-124l10 66h326l-10 -66h-124l-48 -346h-78zM481 296l58 412h119l66 -316h3l156 316h119l-58 -412h-78l48 344h-2l-168 -344h-63l-72 344h-2l-48 -344h-78z" />
    <glyph glyph-name="Omega" unicode="&#x2126;" horiz-adv-x="716" 
d="M203 71v3q-50 53 -76.5 132t-12.5 176q20 145 119 239.5t229 94.5q131 0 198 -98t48 -231q-14 -100 -64.5 -182.5t-113.5 -130.5v-3h148l-10 -71h-245l7 53q67 40 120 122t69 195q9 68 -5 129t-56.5 102.5t-107.5 41.5q-95 0 -164.5 -79t-85.5 -197q-16 -106 14.5 -191.5
t84.5 -122.5l-7 -53h-246l10 71h147z" />
    <glyph glyph-name="estimated" unicode="&#x212e;" horiz-adv-x="984" 
d="M949 344h-659q-5 0 -5 -5v-199q0 -12 9 -23q105 -108 249 -108q77 0 145 32.5t117 88.5h58q-55 -65 -139.5 -103t-181.5 -38q-168 0 -287 107t-119 258t119 258.5t287 107.5q169 0 288 -107t119 -259v-10zM799 370v200q0 14 -9 24q-106 104 -247 104q-143 0 -248 -107
q-10 -10 -10 -25v-196q0 -7 5 -7h505q4 0 4 7z" />
    <glyph glyph-name="partialdiff" unicode="&#x2202;" horiz-adv-x="552" 
d="M196 672l-19 64q81 57 178 57q108 0 169.5 -99t35.5 -283q-26 -187 -112 -303t-212 -116q-93 0 -134 70.5t-28 164.5q16 116 88 187.5t161 71.5q59 0 97 -30t51 -62h1q5 18 7 42q18 123 -24 204t-119 81q-72 0 -140 -49zM254 65h1q64 0 118 73t78 174q-6 37 -39.5 70.5
t-83.5 33.5q-59 0 -108.5 -56t-60.5 -134q-10 -71 16 -116t79 -45z" />
    <glyph glyph-name="Delta" unicode="&#x2206;" horiz-adv-x="649" 
d="M30 0l8 57l340 666h101l147 -665l-8 -58h-588zM129 71h407l-86 366q-4 23 -19 92.5t-18 94.5h-4q-8 -20 -39 -82t-43 -89z" />
    <glyph glyph-name="product" unicode="&#x220f;" horiz-adv-x="802" 
d="M777 626h-108v-723h-85v723h-266v-723h-86v723h-107v79h652v-79z" />
    <glyph glyph-name="summation" unicode="&#x2211;" horiz-adv-x="653" 
d="M632 -97h-510v57l263 343l-252 341v61h483v-75h-364v-3l232 -310l-252 -329v-3h400v-82z" />
    <glyph glyph-name="minus" unicode="&#x2212;" horiz-adv-x="666" 
d="M114 342h534l-11 -78h-534z" />
    <glyph glyph-name="uni2215" unicode="&#x2215;" horiz-adv-x="167" 
d="M433 708l-543 -740l-56 32l543 740z" />
    <glyph glyph-name="uni2219" unicode="&#x2219;" horiz-adv-x="278" 
d="M116 303q4 27 26 46.5t49 19.5t44 -19.5t13 -46.5t-26.5 -46.5t-49.5 -19.5t-43.5 19.5t-12.5 46.5z" />
    <glyph glyph-name="radical" unicode="&#x221a;" horiz-adv-x="678" 
d="M680 840l-222 -989h-75l-157 463l-75 -29l-16 52l144 57l122 -363q11 -40 18 -76h2q7 44 14 78l182 807h63z" />
    <glyph glyph-name="infinity" unicode="&#x221e;" horiz-adv-x="842" 
d="M792 293v-1q0 -72 -46 -117.5t-109 -45.5q-46 0 -87.5 27.5t-95.5 90.5q-49 -57 -91.5 -87.5t-97.5 -30.5q-62 0 -106.5 46t-44.5 113q0 70 45.5 116t113.5 46q52 0 95 -31t90 -87q35 40 53 58.5t56 39t77 20.5q66 0 107 -43.5t41 -113.5zM273 182h1q10 0 19.5 1.5
t20 6.5t17.5 8.5t18 12.5t16 12.5t16.5 16t14.5 15t15.5 16.5t13.5 15q-25 31 -35 42.5t-32.5 33t-44 29.5t-46.5 8q-45 0 -71.5 -32t-26.5 -80q0 -44 29 -74.5t75 -30.5zM639 399h-2q-23 0 -48 -14t-37 -24.5t-40 -40.5l-27 -29q55 -62 86.5 -85.5t69.5 -23.5
q44 0 70.5 32.5t26.5 73.5q0 51 -27.5 81t-71.5 30z" />
    <glyph glyph-name="integral" unicode="&#x222b;" horiz-adv-x="469" 
d="M451 851l-13 -61q-15 10 -36 10q-33 0 -51 -24q-32 -40 -32 -178q0 -79 6.5 -248t6.5 -255q0 -139 -41 -203q-33 -57 -106 -57q-41 0 -68 16l13 63q25 -11 45 -11q30 0 46 22q33 45 33 170q0 86 -7 258t-7 253q0 85 12.5 135.5t42.5 81.5q38 41 99 41q33 0 57 -13z" />
    <glyph glyph-name="approxequal" unicode="&#x2248;" horiz-adv-x="621" 
d="M543 439l34 -30q-50 -98 -130 -98q-28 0 -51.5 9.5t-64.5 32.5q-59 34 -92 34q-31 0 -52.5 -19t-45.5 -55l-35 30q23 45 59.5 71t79.5 26q14 0 27 -2t26.5 -8t20 -9t21.5 -11.5t16 -9.5q3 -2 14 -8t14.5 -8t12 -6t13 -5.5l12 -4t14 -3t13.5 -0.5q28 0 49.5 18t44.5 56z
M543 264l34 -30q-50 -97 -130 -97q-28 0 -51.5 9.5t-64.5 32.5q-59 34 -92 34q-32 0 -53 -19t-45 -56l-35 30q23 45 59.5 71.5t79.5 26.5q14 0 27 -2.5t26.5 -8t20.5 -8.5t21 -11.5t16 -9.5q4 -2 18 -10t19.5 -11t16.5 -7.5t20 -6t19 -1.5q29 0 50 18t44 56z" />
    <glyph glyph-name="notequal" unicode="&#x2260;" horiz-adv-x="634" 
d="M475 510l-43 -97h152v-54h-174l-65 -145h239v-54h-261l-53 -117l-43 19l45 98h-147v54h169l65 145h-234v54h255l52 115z" />
    <glyph glyph-name="lessequal" unicode="&#x2264;" horiz-adv-x="646" 
d="M593 98l-451 226v58l450 226v-65l-393 -188v-2l394 -190v-65zM596 2h-459v56h459v-56z" />
    <glyph glyph-name="greaterequal" unicode="&#x2265;" horiz-adv-x="646" 
d="M143 608l451 -226v-58l-451 -226v65l393 189v2l-393 189v65zM595 2h-458v56h458v-56z" />
    <glyph glyph-name="lozenge" unicode="&#x25ca;" horiz-adv-x="678" 
d="M625 352l-202 -398h-70l-198 398l201 399h71zM546 350l-136 273q-12 30 -19 55h-3q-6 -24 -19 -55l-136 -269l137 -275q11 -27 18 -53h4q7 30 17 52z" />
    <hkern u1="T" u2="&#x161;" k="28" />
    <hkern u1="T" u2="&#xfc;" k="51" />
    <hkern u1="T" u2="&#xf6;" k="56" />
    <hkern u1="T" u2="&#xf2;" k="56" />
    <hkern u1="T" u2="&#xeb;" k="56" />
    <hkern u1="T" u2="&#xea;" k="83" />
    <hkern u1="T" u2="&#xe8;" k="83" />
    <hkern u1="T" u2="&#xe5;" k="56" />
    <hkern u1="T" u2="&#xe4;" k="28" />
    <hkern u1="T" u2="&#xe3;" k="56" />
    <hkern u1="T" u2="&#xe2;" k="56" />
    <hkern u1="T" u2="&#xe0;" k="56" />
    <hkern u1="V" u2="&#xf6;" k="28" />
    <hkern u1="V" u2="&#xf4;" k="41" />
    <hkern u1="V" u2="&#xee;" k="-4" />
    <hkern u1="V" u2="&#xeb;" k="28" />
    <hkern u1="V" u2="&#xea;" k="28" />
    <hkern u1="V" u2="&#xe8;" k="28" />
    <hkern u1="V" u2="&#xe5;" k="28" />
    <hkern u1="V" u2="&#xe4;" k="28" />
    <hkern u1="V" u2="&#xe3;" k="28" />
    <hkern u1="V" u2="&#xe2;" k="28" />
    <hkern u1="V" u2="&#xe0;" k="28" />
    <hkern u1="W" u2="&#xfc;" k="14" />
    <hkern u1="W" u2="&#xf6;" k="35" />
    <hkern u1="W" u2="&#xea;" k="35" />
    <hkern u1="W" u2="&#xe4;" k="35" />
    <hkern u1="Y" u2="&#xfc;" k="56" />
    <hkern u1="Y" u2="&#xf6;" k="83" />
    <hkern u1="&#x2018;" u2="&#x2018;" k="101" />
    <hkern u1="&#x2019;" u2="&#x2019;" k="101" />
    <hkern g1="A,Agrave,Aacute,Acircumflex,Atilde,Adieresis,Aring"
	g2="T"
	k="92" />
    <hkern g1="A,Agrave,Aacute,Acircumflex,Atilde,Adieresis,Aring"
	g2="v"
	k="18" />
    <hkern g1="A,Agrave,Aacute,Acircumflex,Atilde,Adieresis,Aring"
	g2="V"
	k="46" />
    <hkern g1="A,Agrave,Aacute,Acircumflex,Atilde,Adieresis,Aring"
	g2="w"
	k="18" />
    <hkern g1="A,Agrave,Aacute,Acircumflex,Atilde,Adieresis,Aring"
	g2="W"
	k="24" />
    <hkern g1="A,Agrave,Aacute,Acircumflex,Atilde,Adieresis,Aring"
	g2="y,yacute,ydieresis"
	k="18" />
    <hkern g1="A,Agrave,Aacute,Acircumflex,Atilde,Adieresis,Aring"
	g2="Y,Yacute,Ydieresis"
	k="74" />
    <hkern g1="A,Agrave,Aacute,Acircumflex,Atilde,Adieresis,Aring"
	g2="quoteright"
	k="74" />
    <hkern g1="f,fi,fl"
	g2="quoteright"
	k="-18" />
    <hkern g1="f,fi,fl"
	g2="f,germandbls,fi,fl"
	k="18" />
    <hkern g1="F"
	g2="A,Agrave,Aacute,Acircumflex,Atilde,Adieresis,Aring,AE"
	k="55" />
    <hkern g1="F"
	g2="comma"
	k="157" />
    <hkern g1="F"
	g2="period"
	k="157" />
    <hkern g1="L,Lslash"
	g2="T"
	k="92" />
    <hkern g1="L,Lslash"
	g2="V"
	k="92" />
    <hkern g1="L,Lslash"
	g2="W"
	k="55" />
    <hkern g1="L,Lslash"
	g2="y,yacute,ydieresis"
	k="37" />
    <hkern g1="L,Lslash"
	g2="Y,Yacute,Ydieresis"
	k="111" />
    <hkern g1="L,Lslash"
	g2="quoteright"
	k="111" />
    <hkern g1="P"
	g2="A,Agrave,Aacute,Acircumflex,Atilde,Adieresis,Aring,AE"
	k="74" />
    <hkern g1="P"
	g2="comma"
	k="179" />
    <hkern g1="P"
	g2="period"
	k="179" />
    <hkern g1="r"
	g2="comma"
	k="92" />
    <hkern g1="r"
	g2="period"
	k="92" />
    <hkern g1="r"
	g2="c,ccedilla"
	k="18" />
    <hkern g1="r"
	g2="d,dotlessi"
	k="18" />
    <hkern g1="r"
	g2="e,egrave,eacute,ecircumflex,edieresis"
	k="18" />
    <hkern g1="r"
	g2="g"
	k="18" />
    <hkern g1="r"
	g2="o,ograve,oacute,ocircumflex,otilde,odieresis,oslash,oe"
	k="18" />
    <hkern g1="r"
	g2="q"
	k="18" />
    <hkern g1="r"
	g2="hyphen"
	k="55" />
    <hkern g1="R"
	g2="T"
	k="18" />
    <hkern g1="R"
	g2="Y,Yacute,Ydieresis"
	k="18" />
    <hkern g1="T"
	g2="w"
	k="111" />
    <hkern g1="T"
	g2="y,yacute,ydieresis"
	k="111" />
    <hkern g1="T"
	g2="A,Agrave,Aacute,Acircumflex,Atilde,Adieresis,Aring,AE"
	k="92" />
    <hkern g1="T"
	g2="comma"
	k="111" />
    <hkern g1="T"
	g2="period"
	k="111" />
    <hkern g1="T"
	g2="c,ccedilla"
	k="111" />
    <hkern g1="T"
	g2="e,egrave,eacute,ecircumflex,edieresis"
	k="111" />
    <hkern g1="T"
	g2="o,ograve,oacute,ocircumflex,otilde,odieresis,oslash,oe"
	k="111" />
    <hkern g1="T"
	g2="hyphen"
	k="129" />
    <hkern g1="T"
	g2="a,agrave,aacute,acircumflex,atilde,adieresis,aring,ae"
	k="111" />
    <hkern g1="T"
	g2="r"
	k="92" />
    <hkern g1="T"
	g2="s,scaron"
	k="111" />
    <hkern g1="T"
	g2="u,ugrave,uacute,ucircumflex,udieresis"
	k="101" />
    <hkern g1="T"
	g2="colon"
	k="111" />
    <hkern g1="T"
	g2="semicolon"
	k="111" />
    <hkern g1="v"
	g2="comma"
	k="74" />
    <hkern g1="v"
	g2="period"
	k="74" />
    <hkern g1="V"
	g2="y,yacute,ydieresis"
	k="18" />
    <hkern g1="V"
	g2="A,Agrave,Aacute,Acircumflex,Atilde,Adieresis,Aring,AE"
	k="46" />
    <hkern g1="V"
	g2="comma"
	k="129" />
    <hkern g1="V"
	g2="period"
	k="129" />
    <hkern g1="V"
	g2="e,egrave,eacute,ecircumflex,edieresis"
	k="55" />
    <hkern g1="V"
	g2="o,ograve,oacute,ocircumflex,otilde,odieresis,oslash,oe"
	k="55" />
    <hkern g1="V"
	g2="hyphen"
	k="55" />
    <hkern g1="V"
	g2="a,agrave,aacute,acircumflex,atilde,adieresis,aring,ae"
	k="55" />
    <hkern g1="V"
	g2="r"
	k="37" />
    <hkern g1="V"
	g2="u,ugrave,uacute,ucircumflex,udieresis"
	k="37" />
    <hkern g1="V"
	g2="colon"
	k="46" />
    <hkern g1="V"
	g2="semicolon"
	k="46" />
    <hkern g1="V"
	g2="i,igrave,iacute,icircumflex,idieresis"
	k="18" />
    <hkern g1="w"
	g2="comma"
	k="55" />
    <hkern g1="w"
	g2="period"
	k="55" />
    <hkern g1="W"
	g2="A,Agrave,Aacute,Acircumflex,Atilde,Adieresis,Aring,AE"
	k="24" />
    <hkern g1="W"
	g2="comma"
	k="90" />
    <hkern g1="W"
	g2="period"
	k="90" />
    <hkern g1="W"
	g2="e,egrave,eacute,ecircumflex,edieresis"
	k="47" />
    <hkern g1="W"
	g2="o,ograve,oacute,ocircumflex,otilde,odieresis,oslash,oe"
	k="47" />
    <hkern g1="W"
	g2="a,agrave,aacute,acircumflex,atilde,adieresis,aring,ae"
	k="47" />
    <hkern g1="W"
	g2="r"
	k="18" />
    <hkern g1="W"
	g2="u,ugrave,uacute,ucircumflex,udieresis"
	k="18" />
    <hkern g1="W"
	g2="colon"
	k="18" />
    <hkern g1="W"
	g2="semicolon"
	k="18" />
    <hkern g1="y,yacute,ydieresis"
	g2="comma"
	k="74" />
    <hkern g1="y,yacute,ydieresis"
	g2="period"
	k="74" />
    <hkern g1="Y,Yacute,Ydieresis"
	g2="v"
	k="55" />
    <hkern g1="Y,Yacute,Ydieresis"
	g2="A,Agrave,Aacute,Acircumflex,Atilde,Adieresis,Aring,AE"
	k="74" />
    <hkern g1="Y,Yacute,Ydieresis"
	g2="comma"
	k="139" />
    <hkern g1="Y,Yacute,Ydieresis"
	g2="period"
	k="139" />
    <hkern g1="Y,Yacute,Ydieresis"
	g2="e,egrave,eacute,ecircumflex,edieresis"
	k="111" />
    <hkern g1="Y,Yacute,Ydieresis"
	g2="o,ograve,oacute,ocircumflex,otilde,odieresis,oslash,oe"
	k="111" />
    <hkern g1="Y,Yacute,Ydieresis"
	g2="q"
	k="92" />
    <hkern g1="Y,Yacute,Ydieresis"
	g2="hyphen"
	k="111" />
    <hkern g1="Y,Yacute,Ydieresis"
	g2="a,agrave,aacute,acircumflex,atilde,adieresis,aring,ae"
	k="92" />
    <hkern g1="Y,Yacute,Ydieresis"
	g2="u,ugrave,uacute,ucircumflex,udieresis"
	k="74" />
    <hkern g1="Y,Yacute,Ydieresis"
	g2="colon"
	k="92" />
    <hkern g1="Y,Yacute,Ydieresis"
	g2="semicolon"
	k="92" />
    <hkern g1="Y,Yacute,Ydieresis"
	g2="i,igrave,iacute,icircumflex,idieresis"
	k="37" />
    <hkern g1="Y,Yacute,Ydieresis"
	g2="p"
	k="74" />
    <hkern g1="quoteright"
	g2="s,scaron"
	k="74" />
    <hkern g1="quoteright"
	g2="t"
	k="18" />
  </font>
</defs></svg>
