<svg xmlns="http://www.w3.org/2000/svg" width="30" height="73" viewBox="0 0 30 73">
  <text id="_" data-name="+" transform="translate(15 59)" font-size="59" font-family="SofiaProBlack, Sofia Pro" letter-spacing="0.1em"><tspan x="-14.248" y="0">+</tspan></text>
</svg>
